<?xml version="1.0" encoding="utf-8"?>
<!DOCTYPE eagle SYSTEM "eagle.dtd">
<eagle version="7.1.0">
<drawing>
<settings>
<setting alwaysvectorfont="no"/>
<setting verticaltext="up"/>
</settings>
<grid distance="0.1" unitdist="inch" unit="inch" style="lines" multiple="1" display="yes" altdistance="0.01" altunitdist="inch" altunit="inch"/>
<layers>
<layer number="1" name="Top" color="4" fill="1" visible="yes" active="yes"/>
<layer number="16" name="Bottom" color="1" fill="1" visible="yes" active="yes"/>
<layer number="17" name="Pads" color="2" fill="1" visible="yes" active="yes"/>
<layer number="18" name="Vias" color="2" fill="1" visible="yes" active="yes"/>
<layer number="19" name="Unrouted" color="6" fill="1" visible="yes" active="yes"/>
<layer number="20" name="Dimension" color="15" fill="1" visible="yes" active="yes"/>
<layer number="21" name="tPlace" color="7" fill="1" visible="yes" active="yes"/>
<layer number="22" name="bPlace" color="7" fill="1" visible="yes" active="yes"/>
<layer number="23" name="tOrigins" color="15" fill="1" visible="yes" active="yes"/>
<layer number="24" name="bOrigins" color="15" fill="1" visible="yes" active="yes"/>
<layer number="25" name="tNames" color="7" fill="1" visible="yes" active="yes"/>
<layer number="26" name="bNames" color="7" fill="1" visible="yes" active="yes"/>
<layer number="27" name="tValues" color="7" fill="1" visible="yes" active="yes"/>
<layer number="28" name="bValues" color="7" fill="1" visible="yes" active="yes"/>
<layer number="29" name="tStop" color="7" fill="3" visible="no" active="yes"/>
<layer number="30" name="bStop" color="7" fill="6" visible="no" active="yes"/>
<layer number="31" name="tCream" color="7" fill="4" visible="no" active="yes"/>
<layer number="32" name="bCream" color="7" fill="5" visible="no" active="yes"/>
<layer number="33" name="tFinish" color="6" fill="3" visible="no" active="yes"/>
<layer number="34" name="bFinish" color="6" fill="6" visible="no" active="yes"/>
<layer number="35" name="tGlue" color="7" fill="4" visible="no" active="yes"/>
<layer number="36" name="bGlue" color="7" fill="5" visible="no" active="yes"/>
<layer number="37" name="tTest" color="7" fill="1" visible="no" active="yes"/>
<layer number="38" name="bTest" color="7" fill="1" visible="no" active="yes"/>
<layer number="39" name="tKeepout" color="4" fill="11" visible="yes" active="yes"/>
<layer number="40" name="bKeepout" color="1" fill="11" visible="yes" active="yes"/>
<layer number="41" name="tRestrict" color="4" fill="10" visible="yes" active="yes"/>
<layer number="42" name="bRestrict" color="1" fill="10" visible="yes" active="yes"/>
<layer number="43" name="vRestrict" color="2" fill="10" visible="yes" active="yes"/>
<layer number="44" name="Drills" color="7" fill="1" visible="no" active="yes"/>
<layer number="45" name="Holes" color="7" fill="1" visible="yes" active="yes"/>
<layer number="46" name="Milling" color="3" fill="1" visible="no" active="yes"/>
<layer number="47" name="Measures" color="7" fill="1" visible="no" active="yes"/>
<layer number="48" name="Document" color="7" fill="1" visible="yes" active="yes"/>
<layer number="49" name="Reference" color="7" fill="1" visible="yes" active="yes"/>
<layer number="51" name="tDocu" color="7" fill="1" visible="yes" active="yes"/>
<layer number="52" name="bDocu" color="7" fill="1" visible="yes" active="yes"/>
<layer number="90" name="Modules" color="5" fill="1" visible="yes" active="yes"/>
<layer number="91" name="Nets" color="2" fill="1" visible="yes" active="yes"/>
<layer number="92" name="Busses" color="1" fill="1" visible="yes" active="yes"/>
<layer number="93" name="Pins" color="2" fill="1" visible="yes" active="yes"/>
<layer number="94" name="Symbols" color="4" fill="1" visible="yes" active="yes"/>
<layer number="95" name="Names" color="7" fill="1" visible="yes" active="yes"/>
<layer number="96" name="Values" color="7" fill="1" visible="yes" active="yes"/>
<layer number="97" name="Info" color="7" fill="1" visible="yes" active="yes"/>
<layer number="98" name="Guide" color="6" fill="1" visible="yes" active="yes"/>
</layers>
<library>
<packages>
<package name="10DOF-IMU">
<wire x1="0" y1="-2.54" x2="33.02" y2="-2.54" width="0.127" layer="20"/>
<hole x="0" y="0" drill="2.032"/>
<hole x="33.02" y="0" drill="2.032"/>
<wire x1="0" y1="-2.54" x2="-2.54" y2="0" width="0.127" layer="20" curve="-90"/>
<wire x1="0" y1="2.54" x2="-2.54" y2="0" width="0.127" layer="20" curve="90"/>
<wire x1="33.02" y1="-2.54" x2="35.56" y2="0" width="0.127" layer="20" curve="90"/>
<wire x1="35.56" y1="0" x2="33.02" y2="2.54" width="0.127" layer="20" curve="90"/>
<wire x1="33.02" y1="2.54" x2="31.75" y2="2.54" width="0.127" layer="20"/>
<wire x1="0" y1="2.54" x2="1.27" y2="2.54" width="0.127" layer="20"/>
<hole x="0" y="17.78" drill="2.032"/>
<hole x="33.02" y="17.78" drill="2.032"/>
<wire x1="0" y1="15.24" x2="-2.54" y2="17.78" width="0.127" layer="20" curve="-90"/>
<wire x1="0" y1="20.32" x2="-2.54" y2="17.78" width="0.127" layer="20" curve="90"/>
<wire x1="33.02" y1="15.24" x2="35.56" y2="17.78" width="0.127" layer="20" curve="90"/>
<wire x1="33.02" y1="20.32" x2="35.56" y2="17.78" width="0.127" layer="20" curve="-90"/>
<wire x1="0" y1="15.24" x2="1.27" y2="15.24" width="0.127" layer="20"/>
<wire x1="1.27" y1="15.24" x2="1.27" y2="2.54" width="0.127" layer="20"/>
<wire x1="0" y1="20.32" x2="33.02" y2="20.32" width="0.127" layer="20"/>
<wire x1="33.02" y1="15.24" x2="31.75" y2="15.24" width="0.127" layer="20"/>
<wire x1="31.75" y1="15.24" x2="31.75" y2="2.54" width="0.127" layer="20"/>
<pad name="VIN" x="5.08" y="0" drill="0.8" shape="square"/>
<pad name="3VO" x="7.62" y="0" drill="0.8" diameter="1.27"/>
<pad name="GND" x="10.16" y="0" drill="0.8"/>
<pad name="SCL" x="12.7" y="0" drill="0.8"/>
<pad name="SDA" x="15.24" y="0" drill="0.8"/>
<pad name="GINT" x="17.78" y="0" drill="0.8"/>
<pad name="GRDY" x="20.32" y="0" drill="0.8"/>
<pad name="LIN1" x="22.86" y="0" drill="0.8"/>
<pad name="LIN2" x="25.4" y="0" drill="0.8"/>
<pad name="LRDY" x="27.94" y="0" drill="0.8"/>
<text x="4.445" y="1.27" size="0.6096" layer="49">VIN</text>
<text x="6.985" y="-1.905" size="0.6096" layer="49">3Vo</text>
<text x="9.525" y="1.27" size="0.6096" layer="49">GND</text>
<text x="12.065" y="-1.905" size="0.6096" layer="49">SCL</text>
<text x="14.605" y="1.27" size="0.6096" layer="49">SDA</text>
<text x="17.145" y="-1.905" size="0.6096" layer="49">GINT</text>
<text x="19.685" y="1.27" size="0.6096" layer="49">GRDY</text>
<text x="22.225" y="-1.905" size="0.6096" layer="49">LIN1</text>
<text x="24.765" y="1.27" size="0.6096" layer="49">LIN2</text>
<text x="27.305" y="-1.905" size="0.6096" layer="49">LRDY</text>
<text x="13.97" y="17.78" size="1.27" layer="49">X-&gt;</text>
<text x="20.32" y="17.78" size="1.27" layer="49">Y^</text>
<text x="26.67" y="17.78" size="1.27" layer="49">Z o</text>
</package>
</packages>
<symbols>
<symbol name="10DOF-IMU">
<description>Adafruit 10DOF IMU</description>
<wire x1="-10.16" y1="-10.16" x2="10.16" y2="-10.16" width="0.254" layer="94"/>
<wire x1="10.16" y1="-10.16" x2="10.16" y2="10.16" width="0.254" layer="94"/>
<wire x1="10.16" y1="10.16" x2="-10.16" y2="10.16" width="0.254" layer="94"/>
<wire x1="-10.16" y1="10.16" x2="-10.16" y2="-10.16" width="0.254" layer="94"/>
<pin name="VIN" x="-15.24" y="5.08" length="middle"/>
<pin name="3VO" x="-15.24" y="2.54" length="middle"/>
<pin name="GND" x="-15.24" y="0" length="middle"/>
<pin name="SCL" x="-15.24" y="-2.54" length="middle"/>
<pin name="SDA" x="-15.24" y="-5.08" length="middle"/>
<pin name="GINT" x="15.24" y="5.08" length="middle" rot="R180"/>
<pin name="GRDY" x="15.24" y="2.54" length="middle" rot="R180"/>
<pin name="LIN1" x="15.24" y="0" length="middle" rot="R180"/>
<pin name="LIN2" x="15.24" y="-2.54" length="middle" rot="R180"/>
<pin name="LRDY" x="15.24" y="-5.08" length="middle" rot="R180"/>
<text x="-10.16" y="10.922" size="1.778" layer="95" font="vector">&gt;NAME</text>
<text x="-10.16" y="-12.7" size="1.778" layer="96" font="vector">&gt;VALUE</text>
</symbol>
<symbol name="GPS">
</symbol>
</symbols>
<devicesets>
<deviceset name="10DOF-IMU" prefix="IMU">
<gates>
<gate name="G$1" symbol="10DOF-IMU" x="0" y="0"/>
</gates>
<devices>
<device name="-10DOF-IMU" package="10DOF-IMU">
<connects>
<connect gate="G$1" pin="3VO" pad="3VO"/>
<connect gate="G$1" pin="GINT" pad="GINT"/>
<connect gate="G$1" pin="GND" pad="GND"/>
<connect gate="G$1" pin="GRDY" pad="GRDY"/>
<connect gate="G$1" pin="LIN1" pad="LIN1"/>
<connect gate="G$1" pin="LIN2" pad="LIN2"/>
<connect gate="G$1" pin="LRDY" pad="LRDY"/>
<connect gate="G$1" pin="SCL" pad="SCL"/>
<connect gate="G$1" pin="SDA" pad="SDA"/>
<connect gate="G$1" pin="VIN" pad="VIN"/>
</connects>
<technologies>
<technology name=""/>
</technologies>
</device>
</devices>
</deviceset>
</devicesets>
</library>
</drawing>
</eagle>
