<?xml version="1.0" encoding="utf-8"?>
<!DOCTYPE eagle SYSTEM "eagle.dtd">
<eagle version="6.5.0">
<drawing>
<settings>
<setting alwaysvectorfont="no"/>
<setting verticaltext="up"/>
</settings>
<grid distance="0.1" unitdist="inch" unit="inch" style="lines" multiple="1" display="no" altdistance="0.01" altunitdist="inch" altunit="inch"/>
<layers>
<layer number="1" name="Top" color="4" fill="1" visible="yes" active="yes"/>
<layer number="16" name="Bottom" color="1" fill="1" visible="yes" active="yes"/>
<layer number="17" name="Pads" color="2" fill="1" visible="yes" active="yes"/>
<layer number="18" name="Vias" color="2" fill="1" visible="yes" active="yes"/>
<layer number="19" name="Unrouted" color="6" fill="1" visible="yes" active="yes"/>
<layer number="20" name="Dimension" color="15" fill="1" visible="yes" active="yes"/>
<layer number="21" name="tPlace" color="7" fill="1" visible="yes" active="yes"/>
<layer number="22" name="bPlace" color="7" fill="1" visible="yes" active="yes"/>
<layer number="23" name="tOrigins" color="15" fill="1" visible="yes" active="yes"/>
<layer number="24" name="bOrigins" color="15" fill="1" visible="yes" active="yes"/>
<layer number="25" name="tNames" color="7" fill="1" visible="yes" active="yes"/>
<layer number="26" name="bNames" color="7" fill="1" visible="yes" active="yes"/>
<layer number="27" name="tValues" color="7" fill="1" visible="yes" active="yes"/>
<layer number="28" name="bValues" color="7" fill="1" visible="yes" active="yes"/>
<layer number="29" name="tStop" color="7" fill="3" visible="no" active="yes"/>
<layer number="30" name="bStop" color="7" fill="6" visible="no" active="yes"/>
<layer number="31" name="tCream" color="7" fill="4" visible="no" active="yes"/>
<layer number="32" name="bCream" color="7" fill="5" visible="no" active="yes"/>
<layer number="33" name="tFinish" color="6" fill="3" visible="no" active="yes"/>
<layer number="34" name="bFinish" color="6" fill="6" visible="no" active="yes"/>
<layer number="35" name="tGlue" color="7" fill="4" visible="no" active="yes"/>
<layer number="36" name="bGlue" color="7" fill="5" visible="no" active="yes"/>
<layer number="37" name="tTest" color="7" fill="1" visible="no" active="yes"/>
<layer number="38" name="bTest" color="7" fill="1" visible="no" active="yes"/>
<layer number="39" name="tKeepout" color="4" fill="11" visible="yes" active="yes"/>
<layer number="40" name="bKeepout" color="1" fill="11" visible="yes" active="yes"/>
<layer number="41" name="tRestrict" color="4" fill="10" visible="yes" active="yes"/>
<layer number="42" name="bRestrict" color="1" fill="10" visible="yes" active="yes"/>
<layer number="43" name="vRestrict" color="2" fill="10" visible="yes" active="yes"/>
<layer number="44" name="Drills" color="7" fill="1" visible="no" active="yes"/>
<layer number="45" name="Holes" color="7" fill="1" visible="yes" active="yes"/>
<layer number="46" name="Milling" color="3" fill="1" visible="no" active="yes"/>
<layer number="47" name="Measures" color="7" fill="1" visible="no" active="yes"/>
<layer number="48" name="Document" color="7" fill="1" visible="yes" active="yes"/>
<layer number="49" name="Reference" color="7" fill="1" visible="yes" active="yes"/>
<layer number="51" name="tDocu" color="7" fill="1" visible="yes" active="yes"/>
<layer number="52" name="bDocu" color="7" fill="1" visible="yes" active="yes"/>
<layer number="90" name="Modules" color="5" fill="1" visible="yes" active="yes"/>
<layer number="91" name="Nets" color="2" fill="1" visible="yes" active="yes"/>
<layer number="92" name="Busses" color="1" fill="1" visible="yes" active="yes"/>
<layer number="93" name="Pins" color="2" fill="1" visible="yes" active="yes"/>
<layer number="94" name="Symbols" color="4" fill="1" visible="yes" active="yes"/>
<layer number="95" name="Names" color="7" fill="1" visible="yes" active="yes"/>
<layer number="96" name="Values" color="7" fill="1" visible="yes" active="yes"/>
<layer number="97" name="Info" color="7" fill="1" visible="yes" active="yes"/>
<layer number="98" name="Guide" color="6" fill="1" visible="yes" active="yes"/>
</layers>
<library>
<packages>
<package name="IDUINO-DUE">
<wire x1="-43.3" y1="28" x2="-43.3" y2="-25.3" width="0.127" layer="20"/>
<pad name="TX3" x="37.211" y="23.114" drill="0.8"/>
<pad name="RX3" x="37.211" y="20.574" drill="0.8"/>
<pad name="TX2" x="37.211" y="18.034" drill="0.8"/>
<pad name="RX2" x="37.211" y="15.494" drill="0.8"/>
<pad name="TX1" x="37.211" y="12.954" drill="0.8"/>
<pad name="RX1" x="37.211" y="10.414" drill="0.8"/>
<pad name="SDA" x="37.211" y="7.874" drill="0.8"/>
<pad name="SCL" x="37.211" y="5.334" drill="0.8"/>
<pad name="CANTX" x="37.211" y="-2.286" drill="0.8"/>
<pad name="CANRX" x="37.211" y="-4.826" drill="0.8"/>
<pad name="DAC1" x="37.211" y="-7.366" drill="0.8"/>
<pad name="DAC0" x="37.211" y="-9.906" drill="0.8"/>
<pad name="A11" x="37.211" y="-12.446" drill="0.8"/>
<pad name="A10" x="37.211" y="-14.986" drill="0.8"/>
<pad name="A9" x="37.211" y="-17.526" drill="0.8"/>
<pad name="A8" x="37.211" y="-20.066" drill="0.8"/>
<pad name="5V2" x="31.75" y="23.114" drill="0.8"/>
<pad name="23" x="31.75" y="20.574" drill="0.8"/>
<pad name="25" x="31.75" y="18.034" drill="0.8"/>
<pad name="51" x="31.75" y="-14.986" drill="0.8"/>
<pad name="53" x="31.75" y="-17.526" drill="0.8"/>
<pad name="GND-BASE2" x="31.75" y="-20.066" drill="0.8"/>
<pad name="5V1" x="29.21" y="23.114" drill="0.8"/>
<pad name="22" x="29.21" y="20.574" drill="0.8"/>
<pad name="24" x="29.21" y="18.034" drill="0.8"/>
<pad name="50" x="29.21" y="-14.986" drill="0.8"/>
<pad name="52" x="29.21" y="-17.526" drill="0.8"/>
<pad name="GND-BASE1" x="29.21" y="-20.066" drill="0.8"/>
<pad name="RX0" x="19.812" y="25.4" drill="0.8"/>
<pad name="TX0" x="17.272" y="25.4" drill="0.8"/>
<pad name="PWM2" x="14.732" y="25.4" drill="0.8"/>
<pad name="PWM3" x="12.192" y="25.4" drill="0.8"/>
<pad name="PWM4" x="9.652" y="25.4" drill="0.8"/>
<pad name="PWM5" x="7.112" y="25.4" drill="0.8"/>
<pad name="PWM6" x="4.572" y="25.4" drill="0.8"/>
<pad name="PWM7" x="2.032" y="25.4" drill="0.8"/>
<pad name="PWM8" x="-2.286" y="25.4" drill="0.8"/>
<pad name="PWM9" x="-4.826" y="25.4" drill="0.8"/>
<pad name="PWM10" x="-7.366" y="25.4" drill="0.8"/>
<pad name="PWM11" x="-9.906" y="25.4" drill="0.8"/>
<pad name="PWM12" x="-12.446" y="25.4" drill="0.8"/>
<pad name="PWM13" x="-14.986" y="25.4" drill="0.8"/>
<pad name="GND" x="-17.526" y="25.4" drill="0.8"/>
<pad name="AREF" x="-20.066" y="25.4" drill="0.8"/>
<pad name="SDA1" x="-22.606" y="25.4" drill="0.8"/>
<pad name="SCL1" x="-25.146" y="25.4" drill="0.8"/>
<pad name="A7" x="24.384" y="-22.86" drill="0.8"/>
<pad name="A6" x="21.844" y="-22.86" drill="0.8"/>
<pad name="A4" x="16.764" y="-22.86" drill="0.8"/>
<pad name="A5" x="19.304" y="-22.86" drill="0.8"/>
<pad name="A3" x="14.224" y="-22.86" drill="0.8"/>
<pad name="A2" x="11.684" y="-22.86" drill="0.8"/>
<pad name="A1" x="9.144" y="-22.86" drill="0.8"/>
<pad name="A0" x="6.604" y="-22.86" drill="0.8"/>
<pad name="VIN" x="1.524" y="-22.86" drill="0.8"/>
<pad name="GND-POWER2" x="-1.016" y="-22.86" drill="0.8"/>
<pad name="GND-POWER1" x="-3.556" y="-22.86" drill="0.8"/>
<pad name="5V" x="-6.096" y="-22.86" drill="0.8"/>
<pad name="RESET" x="-11.176" y="-22.86" drill="0.8"/>
<pad name="3V3" x="-8.636" y="-22.86" drill="0.8"/>
<pad name="I0REF" x="-13.716" y="-22.86" drill="0.8"/>
<pad name="NOTUSED" x="-16.256" y="-22.86" drill="0.8"/>
<hole x="-30.734" y="25.4" drill="4.365625"/>
<hole x="39.624" y="1.524" drill="4.365625"/>
<pad name="5V-SPI" x="24.003" y="4.572" drill="0.8"/>
<pad name="MOSI" x="24.003" y="2.032" drill="0.8"/>
<pad name="GND-SPI" x="24.003" y="-0.508" drill="0.8"/>
<pad name="RESET-SPI" x="21.463" y="-0.508" drill="0.8"/>
<pad name="SCK" x="21.463" y="2.032" drill="0.8"/>
<pad name="MISO" x="21.463" y="4.572" drill="0.8"/>
<wire x1="41" y1="27" x2="41" y2="15" width="0.127" layer="21"/>
<wire x1="41" y1="15" x2="43" y2="13" width="0.127" layer="21"/>
<wire x1="41" y1="-25.3" x2="41" y2="-23" width="0.127" layer="21"/>
<wire x1="41" y1="-23" x2="43" y2="-21" width="0.127" layer="21"/>
<wire x1="-43.3" y1="-25.3" x2="41" y2="-25.3" width="0.127" layer="21"/>
<wire x1="43" y1="-21" x2="43" y2="13" width="0.127" layer="21"/>
<wire x1="-43.3" y1="28" x2="40" y2="28" width="0.127" layer="21"/>
<wire x1="40" y1="28" x2="41" y2="27" width="0.127" layer="21"/>
<pad name="26" x="29.21" y="15.494" drill="0.8"/>
<pad name="27" x="31.75" y="15.494" drill="0.8"/>
<pad name="28" x="29.21" y="12.954" drill="0.8"/>
<pad name="29" x="31.75" y="12.954" drill="0.8"/>
<pad name="30" x="29.21" y="10.414" drill="0.8"/>
<pad name="31" x="31.75" y="10.414" drill="0.8"/>
</package>
</packages>
<symbols>
<symbol name="IDUINO-DUE">
<wire x1="-25.4" y1="50.8" x2="25.4" y2="50.8" width="0.254" layer="94"/>
<wire x1="25.4" y1="50.8" x2="25.4" y2="-50.8" width="0.254" layer="94"/>
<wire x1="25.4" y1="-50.8" x2="-25.4" y2="-50.8" width="0.254" layer="94"/>
<wire x1="-25.4" y1="-50.8" x2="-25.4" y2="50.8" width="0.254" layer="94"/>
<pin name="NOTUSED" x="-30.48" y="45.72" length="middle"/>
<pin name="IOREF" x="-30.48" y="43.18" length="middle"/>
<pin name="RESET" x="-30.48" y="40.64" length="middle"/>
<pin name="5V" x="-30.48" y="35.56" length="middle"/>
<pin name="3V3" x="-30.48" y="38.1" length="middle"/>
<pin name="GND-POWER1" x="-30.48" y="33.02" length="middle"/>
<pin name="GND-POWER2" x="-30.48" y="30.48" length="middle"/>
<pin name="VIN" x="-30.48" y="27.94" length="middle"/>
<pin name="A0" x="-30.48" y="22.86" length="middle"/>
<pin name="A1" x="-30.48" y="20.32" length="middle"/>
<pin name="A2" x="-30.48" y="17.78" length="middle"/>
<pin name="A3" x="-30.48" y="15.24" length="middle"/>
<pin name="A4" x="-30.48" y="12.7" length="middle"/>
<pin name="A5" x="-30.48" y="10.16" length="middle"/>
<pin name="A6" x="-30.48" y="7.62" length="middle"/>
<pin name="A7" x="-30.48" y="5.08" length="middle"/>
<pin name="SCL1" x="-30.48" y="0" length="middle"/>
<pin name="SDA1" x="-30.48" y="-2.54" length="middle"/>
<pin name="AREF" x="-30.48" y="-5.08" length="middle"/>
<pin name="GND" x="-30.48" y="-7.62" length="middle"/>
<pin name="PWM12" x="-30.48" y="-12.7" length="middle"/>
<pin name="PWM13" x="-30.48" y="-10.16" length="middle"/>
<pin name="PWM11" x="-30.48" y="-15.24" length="middle"/>
<pin name="PWM10" x="-30.48" y="-17.78" length="middle"/>
<pin name="PWM9" x="-30.48" y="-20.32" length="middle"/>
<pin name="PWM8" x="-30.48" y="-22.86" length="middle"/>
<pin name="PWM7" x="-30.48" y="-27.94" length="middle"/>
<pin name="PWM6" x="-30.48" y="-30.48" length="middle"/>
<pin name="PWM5" x="-30.48" y="-33.02" length="middle"/>
<pin name="PWM4" x="-30.48" y="-35.56" length="middle"/>
<pin name="PWM3" x="-30.48" y="-38.1" length="middle"/>
<pin name="PWM2" x="-30.48" y="-40.64" length="middle"/>
<pin name="TX0" x="-30.48" y="-43.18" length="middle"/>
<pin name="RX0" x="-30.48" y="-45.72" length="middle"/>
<pin name="5V1" x="30.48" y="45.72" length="middle" rot="R180"/>
<pin name="5V2" x="30.48" y="43.18" length="middle" rot="R180"/>
<pin name="22" x="30.48" y="40.64" length="middle" rot="R180"/>
<pin name="23" x="30.48" y="38.1" length="middle" rot="R180"/>
<pin name="24" x="30.48" y="35.56" length="middle" rot="R180"/>
<pin name="25" x="30.48" y="33.02" length="middle" rot="R180"/>
<pin name="50" x="30.48" y="-30.48" length="middle" rot="R180"/>
<pin name="51" x="30.48" y="-33.02" length="middle" rot="R180"/>
<pin name="52" x="30.48" y="-35.56" length="middle" rot="R180"/>
<pin name="53" x="30.48" y="-38.1" length="middle" rot="R180"/>
<pin name="GND-BOTTOM1" x="30.48" y="-40.64" length="middle" rot="R180"/>
<pin name="GND-BOTTOM2" x="30.48" y="-43.18" length="middle" rot="R180"/>
<pin name="A9" x="17.78" y="-55.88" length="middle" rot="R90"/>
<pin name="A8" x="20.32" y="-55.88" length="middle" rot="R90"/>
<pin name="A10" x="15.24" y="-55.88" length="middle" rot="R90"/>
<pin name="A11" x="12.7" y="-55.88" length="middle" rot="R90"/>
<pin name="CANRX" x="5.08" y="-55.88" length="middle" rot="R90"/>
<pin name="DAC1" x="7.62" y="-55.88" length="middle" rot="R90"/>
<pin name="DAC0" x="10.16" y="-55.88" length="middle" rot="R90"/>
<pin name="CANTX" x="2.54" y="-55.88" length="middle" rot="R90"/>
<pin name="SCL" x="-2.54" y="-55.88" length="middle" rot="R90"/>
<pin name="SDA" x="-5.08" y="-55.88" length="middle" rot="R90"/>
<pin name="RX1" x="-7.62" y="-55.88" length="middle" rot="R90"/>
<pin name="TX1" x="-10.16" y="-55.88" length="middle" rot="R90"/>
<pin name="RX2" x="-12.7" y="-55.88" length="middle" rot="R90"/>
<pin name="TX2" x="-15.24" y="-55.88" length="middle" rot="R90"/>
<pin name="RX3" x="-17.78" y="-55.88" length="middle" rot="R90"/>
<pin name="TX3" x="-20.32" y="-55.88" length="middle" rot="R90"/>
<pin name="5V-SPI" x="2.54" y="55.88" length="middle" rot="R270"/>
<pin name="RESET-SPI" x="0" y="55.88" length="middle" rot="R270"/>
<pin name="MOSI" x="5.08" y="55.88" length="middle" rot="R270"/>
<pin name="SCK" x="-2.54" y="55.88" length="middle" rot="R270"/>
<pin name="GND-SPI" x="7.62" y="55.88" length="middle" rot="R270"/>
<pin name="MISO" x="-5.08" y="55.88" length="middle" rot="R270"/>
<text x="-25.4" y="53.34" size="1.778" layer="95" font="vector">&gt;NAME</text>
<pin name="26" x="30.48" y="30.48" length="middle" rot="R180"/>
<pin name="27" x="30.48" y="27.94" length="middle" rot="R180"/>
<pin name="28" x="30.48" y="25.4" length="middle" rot="R180"/>
<pin name="29" x="30.48" y="22.86" length="middle" rot="R180"/>
<pin name="30" x="30.48" y="20.32" length="middle" rot="R180"/>
<pin name="31" x="30.48" y="17.78" length="middle" rot="R180"/>
</symbol>
</symbols>
<devicesets>
<deviceset name="IDUINO-DUE" prefix="DUE">
<description>This is a library file for the headout pins of the Idunio Due Pro.</description>
<gates>
<gate name="G$1" symbol="IDUINO-DUE" x="0" y="0"/>
</gates>
<devices>
<device name="" package="IDUINO-DUE">
<connects>
<connect gate="G$1" pin="22" pad="22"/>
<connect gate="G$1" pin="23" pad="23"/>
<connect gate="G$1" pin="24" pad="24"/>
<connect gate="G$1" pin="25" pad="25"/>
<connect gate="G$1" pin="26" pad="26"/>
<connect gate="G$1" pin="27" pad="27"/>
<connect gate="G$1" pin="28" pad="28"/>
<connect gate="G$1" pin="29" pad="29"/>
<connect gate="G$1" pin="30" pad="30"/>
<connect gate="G$1" pin="31" pad="31"/>
<connect gate="G$1" pin="3V3" pad="3V3"/>
<connect gate="G$1" pin="50" pad="50"/>
<connect gate="G$1" pin="51" pad="51"/>
<connect gate="G$1" pin="52" pad="52"/>
<connect gate="G$1" pin="53" pad="53"/>
<connect gate="G$1" pin="5V" pad="5V"/>
<connect gate="G$1" pin="5V-SPI" pad="5V-SPI"/>
<connect gate="G$1" pin="5V1" pad="5V1"/>
<connect gate="G$1" pin="5V2" pad="5V2"/>
<connect gate="G$1" pin="A0" pad="A0"/>
<connect gate="G$1" pin="A1" pad="A1"/>
<connect gate="G$1" pin="A10" pad="A10"/>
<connect gate="G$1" pin="A11" pad="A11"/>
<connect gate="G$1" pin="A2" pad="A2"/>
<connect gate="G$1" pin="A3" pad="A3"/>
<connect gate="G$1" pin="A4" pad="A4"/>
<connect gate="G$1" pin="A5" pad="A5"/>
<connect gate="G$1" pin="A6" pad="A6"/>
<connect gate="G$1" pin="A7" pad="A7"/>
<connect gate="G$1" pin="A8" pad="A8"/>
<connect gate="G$1" pin="A9" pad="A9"/>
<connect gate="G$1" pin="AREF" pad="AREF"/>
<connect gate="G$1" pin="CANRX" pad="CANRX"/>
<connect gate="G$1" pin="CANTX" pad="CANTX"/>
<connect gate="G$1" pin="DAC0" pad="DAC0"/>
<connect gate="G$1" pin="DAC1" pad="DAC1"/>
<connect gate="G$1" pin="GND" pad="GND"/>
<connect gate="G$1" pin="GND-BOTTOM1" pad="GND-BASE1"/>
<connect gate="G$1" pin="GND-BOTTOM2" pad="GND-BASE2"/>
<connect gate="G$1" pin="GND-POWER1" pad="GND-POWER1"/>
<connect gate="G$1" pin="GND-POWER2" pad="GND-POWER2"/>
<connect gate="G$1" pin="GND-SPI" pad="GND-SPI"/>
<connect gate="G$1" pin="IOREF" pad="I0REF"/>
<connect gate="G$1" pin="MISO" pad="MISO"/>
<connect gate="G$1" pin="MOSI" pad="MOSI"/>
<connect gate="G$1" pin="NOTUSED" pad="NOTUSED"/>
<connect gate="G$1" pin="PWM10" pad="PWM10"/>
<connect gate="G$1" pin="PWM11" pad="PWM11"/>
<connect gate="G$1" pin="PWM12" pad="PWM12"/>
<connect gate="G$1" pin="PWM13" pad="PWM13"/>
<connect gate="G$1" pin="PWM2" pad="PWM2"/>
<connect gate="G$1" pin="PWM3" pad="PWM3"/>
<connect gate="G$1" pin="PWM4" pad="PWM4"/>
<connect gate="G$1" pin="PWM5" pad="PWM5"/>
<connect gate="G$1" pin="PWM6" pad="PWM6"/>
<connect gate="G$1" pin="PWM7" pad="PWM7"/>
<connect gate="G$1" pin="PWM8" pad="PWM8"/>
<connect gate="G$1" pin="PWM9" pad="PWM9"/>
<connect gate="G$1" pin="RESET" pad="RESET"/>
<connect gate="G$1" pin="RESET-SPI" pad="RESET-SPI"/>
<connect gate="G$1" pin="RX0" pad="RX0"/>
<connect gate="G$1" pin="RX1" pad="RX1"/>
<connect gate="G$1" pin="RX2" pad="RX2"/>
<connect gate="G$1" pin="RX3" pad="RX3"/>
<connect gate="G$1" pin="SCK" pad="SCK"/>
<connect gate="G$1" pin="SCL" pad="SCL"/>
<connect gate="G$1" pin="SCL1" pad="SCL1"/>
<connect gate="G$1" pin="SDA" pad="SDA"/>
<connect gate="G$1" pin="SDA1" pad="SDA1"/>
<connect gate="G$1" pin="TX0" pad="TX0"/>
<connect gate="G$1" pin="TX1" pad="TX1"/>
<connect gate="G$1" pin="TX2" pad="TX2"/>
<connect gate="G$1" pin="TX3" pad="TX3"/>
<connect gate="G$1" pin="VIN" pad="VIN"/>
</connects>
<technologies>
<technology name=""/>
</technologies>
</device>
</devices>
</deviceset>
</devicesets>
</library>
</drawing>
</eagle>
