<?xml version="1.0" encoding="utf-8"?>
<!DOCTYPE eagle SYSTEM "eagle.dtd">
<eagle version="6.6.0">
<drawing>
<settings>
<setting alwaysvectorfont="no"/>
<setting verticaltext="up"/>
</settings>
<grid distance="0.1" unitdist="inch" unit="inch" style="lines" multiple="1" display="no" altdistance="0.01" altunitdist="inch" altunit="inch"/>
<layers>
<layer number="1" name="Top" color="4" fill="1" visible="no" active="no"/>
<layer number="2" name="Route2" color="1" fill="3" visible="no" active="no"/>
<layer number="3" name="Route3" color="4" fill="3" visible="no" active="no"/>
<layer number="4" name="Route4" color="1" fill="4" visible="no" active="no"/>
<layer number="5" name="Route5" color="4" fill="4" visible="no" active="no"/>
<layer number="6" name="Route6" color="1" fill="8" visible="no" active="no"/>
<layer number="7" name="Route7" color="4" fill="8" visible="no" active="no"/>
<layer number="8" name="Route8" color="1" fill="2" visible="no" active="no"/>
<layer number="9" name="Route9" color="4" fill="2" visible="no" active="no"/>
<layer number="10" name="Route10" color="1" fill="7" visible="no" active="no"/>
<layer number="11" name="Route11" color="4" fill="7" visible="no" active="no"/>
<layer number="12" name="Route12" color="1" fill="5" visible="no" active="no"/>
<layer number="13" name="Route13" color="4" fill="5" visible="no" active="no"/>
<layer number="14" name="Route14" color="1" fill="6" visible="no" active="no"/>
<layer number="15" name="Route15" color="4" fill="6" visible="no" active="no"/>
<layer number="16" name="Bottom" color="1" fill="1" visible="no" active="no"/>
<layer number="17" name="Pads" color="2" fill="1" visible="no" active="no"/>
<layer number="18" name="Vias" color="2" fill="1" visible="no" active="no"/>
<layer number="19" name="Unrouted" color="6" fill="1" visible="no" active="no"/>
<layer number="20" name="Dimension" color="15" fill="1" visible="no" active="no"/>
<layer number="21" name="tPlace" color="7" fill="1" visible="no" active="no"/>
<layer number="22" name="bPlace" color="7" fill="1" visible="no" active="no"/>
<layer number="23" name="tOrigins" color="15" fill="1" visible="no" active="no"/>
<layer number="24" name="bOrigins" color="15" fill="1" visible="no" active="no"/>
<layer number="25" name="tNames" color="7" fill="1" visible="no" active="no"/>
<layer number="26" name="bNames" color="7" fill="1" visible="no" active="no"/>
<layer number="27" name="tValues" color="7" fill="1" visible="no" active="no"/>
<layer number="28" name="bValues" color="7" fill="1" visible="no" active="no"/>
<layer number="29" name="tStop" color="7" fill="3" visible="no" active="no"/>
<layer number="30" name="bStop" color="7" fill="6" visible="no" active="no"/>
<layer number="31" name="tCream" color="7" fill="4" visible="no" active="no"/>
<layer number="32" name="bCream" color="7" fill="5" visible="no" active="no"/>
<layer number="33" name="tFinish" color="6" fill="3" visible="no" active="no"/>
<layer number="34" name="bFinish" color="6" fill="6" visible="no" active="no"/>
<layer number="35" name="tGlue" color="7" fill="4" visible="no" active="no"/>
<layer number="36" name="bGlue" color="7" fill="5" visible="no" active="no"/>
<layer number="37" name="tTest" color="7" fill="1" visible="no" active="no"/>
<layer number="38" name="bTest" color="7" fill="1" visible="no" active="no"/>
<layer number="39" name="tKeepout" color="4" fill="11" visible="no" active="no"/>
<layer number="40" name="bKeepout" color="1" fill="11" visible="no" active="no"/>
<layer number="41" name="tRestrict" color="4" fill="10" visible="no" active="no"/>
<layer number="42" name="bRestrict" color="1" fill="10" visible="no" active="no"/>
<layer number="43" name="vRestrict" color="2" fill="10" visible="no" active="no"/>
<layer number="44" name="Drills" color="7" fill="1" visible="no" active="no"/>
<layer number="45" name="Holes" color="7" fill="1" visible="no" active="no"/>
<layer number="46" name="Milling" color="3" fill="1" visible="no" active="no"/>
<layer number="47" name="Measures" color="7" fill="1" visible="no" active="no"/>
<layer number="48" name="Document" color="7" fill="1" visible="no" active="no"/>
<layer number="49" name="Reference" color="7" fill="1" visible="no" active="no"/>
<layer number="51" name="tDocu" color="7" fill="1" visible="no" active="no"/>
<layer number="52" name="bDocu" color="7" fill="1" visible="no" active="no"/>
<layer number="90" name="Modules" color="5" fill="1" visible="yes" active="yes"/>
<layer number="91" name="Nets" color="2" fill="1" visible="yes" active="yes"/>
<layer number="92" name="Busses" color="1" fill="1" visible="yes" active="yes"/>
<layer number="93" name="Pins" color="2" fill="1" visible="no" active="yes"/>
<layer number="94" name="Symbols" color="4" fill="1" visible="yes" active="yes"/>
<layer number="95" name="Names" color="7" fill="1" visible="yes" active="yes"/>
<layer number="96" name="Values" color="7" fill="1" visible="yes" active="yes"/>
<layer number="97" name="Info" color="7" fill="1" visible="yes" active="yes"/>
<layer number="98" name="Guide" color="6" fill="1" visible="yes" active="yes"/>
</layers>
<schematic xreflabel="%F%N/%S.%C%R" xrefpart="/%S.%C%R">
<libraries>
<library name="Iduino-PC104">
<description>&lt;b&gt;PC/104 Standard/Plus connector&lt;/b&gt;&lt;p&gt;
Sources :
&lt;ul&gt;
&lt;li&gt;&lt;b&gt;pc104standard.pdf&lt;/b&gt;&lt;p&gt;
PC/104 Specification, Version 2.3, June 1996&lt;p&gt;
Copyright 1992-96, PC/104 Consortium
&lt;li&gt;&lt;b&gt;PC104plus.pdf&lt;/b&gt;&lt;p&gt;
PC/104-Plus Specification, Version 1.1, June 1997&lt;p&gt;
Copyright 1992-98, PC/104 Consortium
&lt;/ul&gt;
include &lt;b&gt;Commcon Connector PC/104&lt;/b&gt;, con-commcon.lbr&lt;p&gt;
&lt;author&gt;Created by librarian@cadsoft.de&lt;/author&gt;</description>
<packages>
<package name="PC104-STANDARD">
<description>&lt;b&gt;PC/104 Standard 16 bit&lt;/b&gt;</description>
<wire x1="0" y1="0" x2="90.2" y2="0" width="0" layer="20"/>
<wire x1="90.2" y1="0" x2="90.2" y2="95.9" width="0" layer="20"/>
<wire x1="90.2" y1="95.9" x2="0" y2="95.9" width="0" layer="20"/>
<wire x1="0" y1="95.9" x2="0" y2="0" width="0" layer="20"/>
<wire x1="5.3" y1="13.8" x2="86.27" y2="13.8" width="0.2032" layer="21"/>
<wire x1="86.27" y1="13.8" x2="86.27" y2="9.1" width="0.2032" layer="21"/>
<wire x1="86.27" y1="9.1" x2="5.3" y2="9.1" width="0.2032" layer="21"/>
<wire x1="5.3" y1="9.1" x2="5.3" y2="13.8" width="0.2032" layer="21"/>
<pad name="RX_GPS" x="6.35" y="12.7" drill="0.8998" diameter="1.397" shape="octagon"/>
<pad name="TX_GPS" x="8.89" y="12.7" drill="0.8998" diameter="1.397" shape="octagon"/>
<pad name="SDA_IMU" x="11.43" y="12.7" drill="0.8998" diameter="1.397" shape="octagon"/>
<pad name="SCL_IMU" x="13.97" y="12.7" drill="0.8998" diameter="1.397" shape="octagon"/>
<pad name="XBEE_TX" x="16.51" y="12.7" drill="0.8998" diameter="1.397" shape="octagon"/>
<pad name="XBEE_RX" x="19.05" y="12.7" drill="0.8998" diameter="1.397" shape="octagon"/>
<pad name="PIN51" x="21.59" y="12.7" drill="0.8998" diameter="1.397" shape="octagon"/>
<pad name="PIN50" x="24.13" y="12.7" drill="0.8998" diameter="1.397" shape="octagon"/>
<pad name="MOSI" x="26.67" y="12.7" drill="0.8998" diameter="1.397" shape="octagon"/>
<pad name="MISO" x="29.21" y="12.7" drill="0.8998" diameter="1.397" shape="octagon"/>
<pad name="SCK" x="31.75" y="12.7" drill="0.8998" diameter="1.397" shape="octagon"/>
<pad name="RST_SPI" x="34.29" y="12.7" drill="0.8998" diameter="1.397" shape="octagon"/>
<pad name="PIN22" x="36.83" y="12.7" drill="0.8998" diameter="1.397" shape="octagon"/>
<pad name="A4" x="39.37" y="12.7" drill="0.8998" diameter="1.397" shape="octagon"/>
<pad name="A3" x="41.91" y="12.7" drill="0.8998" diameter="1.397" shape="octagon"/>
<pad name="A2" x="44.45" y="12.7" drill="0.8998" diameter="1.397" shape="octagon"/>
<pad name="A1" x="46.99" y="12.7" drill="0.8998" diameter="1.397" shape="octagon"/>
<pad name="A0" x="49.53" y="12.7" drill="0.8998" diameter="1.397" shape="octagon"/>
<pad name="P_D1" x="52.07" y="12.7" drill="0.8998" diameter="1.397" shape="octagon"/>
<pad name="P_D2" x="54.61" y="12.7" drill="0.8998" diameter="1.397" shape="octagon"/>
<pad name="P_D3" x="57.15" y="12.7" drill="0.8998" diameter="1.397" shape="octagon"/>
<pad name="P_D4" x="59.69" y="12.7" drill="0.8998" diameter="1.397" shape="octagon"/>
<pad name="P_D5" x="62.23" y="12.7" drill="0.8998" diameter="1.397" shape="octagon"/>
<pad name="P_D6" x="64.77" y="12.7" drill="0.8998" diameter="1.397" shape="octagon"/>
<pad name="5V" x="67.31" y="12.7" drill="0.8998" diameter="1.397" shape="octagon"/>
<pad name="GND" x="69.85" y="12.7" drill="0.8998" diameter="1.397" shape="octagon"/>
<pad name="A8" x="6.35" y="10.16" drill="0.8998" diameter="1.397" shape="octagon"/>
<pad name="3.3V" x="72.39" y="12.7" drill="0.8998" diameter="1.397" shape="octagon"/>
<pad name="A9" x="8.89" y="10.16" drill="0.8998" diameter="1.397" shape="octagon"/>
<pad name="MAG3" x="74.93" y="12.7" drill="0.8998" diameter="1.397" shape="octagon"/>
<pad name="A10" x="11.43" y="10.16" drill="0.8998" diameter="1.397" shape="octagon"/>
<pad name="MAG2" x="77.47" y="12.7" drill="0.8998" diameter="1.397" shape="octagon"/>
<pad name="A7" x="13.97" y="10.16" drill="0.8998" diameter="1.397" shape="octagon"/>
<pad name="MAG1" x="80.01" y="12.7" drill="0.8998" diameter="1.397" shape="octagon"/>
<pad name="SPARE" x="80.01" y="10.16" drill="0.8998" diameter="1.397" shape="octagon"/>
<pad name="SDCS_CAM" x="82.55" y="12.7" drill="0.8998" diameter="1.397" shape="octagon"/>
<pad name="SDA_CAM" x="82.55" y="10.16" drill="0.8998" diameter="1.397" shape="octagon"/>
<pad name="CSN_CAM" x="85.09" y="12.7" drill="0.8998" diameter="1.397" shape="octagon"/>
<pad name="SCL_CAM" x="85.09" y="10.16" drill="0.8998" diameter="1.397" shape="octagon"/>
<text x="5.715" y="14.605" size="1.27" layer="25">J1</text>
<pad name="A6" x="16.51" y="10.16" drill="0.8998" diameter="1.397" shape="octagon"/>
<pad name="A5" x="19.05" y="10.16" drill="0.8998" diameter="1.397" shape="octagon"/>
<pad name="23" x="21.59" y="10.16" drill="0.8998" diameter="1.397" shape="octagon"/>
<pad name="25" x="24.13" y="10.16" drill="0.8998" diameter="1.397" shape="octagon"/>
<pad name="27" x="26.67" y="10.16" drill="0.8998" diameter="1.397" shape="octagon"/>
<pad name="52" x="29.21" y="10.16" drill="0.8998" diameter="1.397" shape="octagon"/>
<pad name="53" x="31.75" y="10.16" drill="0.8998" diameter="1.397" shape="octagon"/>
<pad name="A11" x="34.29" y="10.16" drill="0.8998" diameter="1.397" shape="octagon"/>
<pad name="DAC0" x="36.83" y="10.16" drill="0.8998" diameter="1.397" shape="octagon"/>
<pad name="DAC1" x="39.37" y="10.16" drill="0.8998" diameter="1.397" shape="octagon"/>
<pad name="RX3" x="41.91" y="10.16" drill="0.8998" diameter="1.397" shape="octagon"/>
<pad name="TX3" x="44.45" y="10.16" drill="0.8998" diameter="1.397" shape="octagon"/>
<pad name="RX0" x="46.99" y="10.16" drill="0.8998" diameter="1.397" shape="octagon"/>
<pad name="TX0" x="49.53" y="10.16" drill="0.8998" diameter="1.397" shape="octagon"/>
<pad name="5" x="52.07" y="10.16" drill="0.8998" diameter="1.397" shape="octagon"/>
<pad name="6" x="54.61" y="10.16" drill="0.8998" diameter="1.397" shape="octagon"/>
<pad name="7" x="57.15" y="10.16" drill="0.8998" diameter="1.397" shape="octagon"/>
<pad name="8" x="59.69" y="10.16" drill="0.8998" diameter="1.397" shape="octagon"/>
<pad name="11" x="62.23" y="10.16" drill="0.8998" diameter="1.397" shape="octagon"/>
<pad name="12" x="64.77" y="10.16" drill="0.8998" diameter="1.397" shape="octagon"/>
<pad name="13" x="67.31" y="10.16" drill="0.8998" diameter="1.397" shape="octagon"/>
<pad name="RESET" x="69.85" y="10.16" drill="0.8998" diameter="1.397" shape="octagon"/>
<pad name="IOREF" x="72.39" y="10.16" drill="0.8998" diameter="1.397" shape="octagon"/>
<pad name="CANRX" x="74.93" y="10.16" drill="0.8998" diameter="1.397" shape="octagon"/>
<pad name="CANTX" x="77.47" y="10.16" drill="0.8998" diameter="1.397" shape="octagon"/>
<hole x="8.89" y="90.805" drill="3.5052"/>
<hole x="82.55" y="90.805" drill="3.5052"/>
<hole x="85.09" y="5.08" drill="3.5052"/>
<hole x="5.08" y="5.08" drill="3.5052"/>
</package>
</packages>
<symbols>
<symbol name="PC104-J1">
<wire x1="-12.7" y1="40.64" x2="12.7" y2="40.64" width="0.254" layer="94"/>
<wire x1="12.7" y1="40.64" x2="12.7" y2="-43.18" width="0.254" layer="94"/>
<wire x1="12.7" y1="-43.18" x2="-12.7" y2="-43.18" width="0.254" layer="94"/>
<wire x1="-12.7" y1="-43.18" x2="-12.7" y2="40.64" width="0.254" layer="94"/>
<text x="-12.7" y="41.656" size="1.778" layer="95">&gt;NAME</text>
<text x="-12.7" y="-45.72" size="1.778" layer="96">&gt;VALUE</text>
<pin name="SDA1" x="-15.24" y="-38.1" length="short" direction="pas"/>
<pin name="NC" x="-15.24" y="-35.56" length="short" direction="pas"/>
<pin name="SCL1" x="-15.24" y="-40.64" length="short" direction="pas"/>
<pin name="TX1" x="15.24" y="38.1" length="short" direction="pas" rot="R180"/>
<pin name="RX1" x="15.24" y="35.56" length="short" direction="pas" rot="R180"/>
<pin name="SDA" x="15.24" y="33.02" length="short" direction="pas" rot="R180"/>
<pin name="SCL" x="15.24" y="30.48" length="short" direction="pas" rot="R180"/>
<pin name="RX2" x="15.24" y="27.94" length="short" direction="pas" rot="R180"/>
<pin name="TX2" x="15.24" y="25.4" length="short" direction="pas" rot="R180"/>
<pin name="SAL_SEL" x="15.24" y="22.86" length="short" direction="pas" rot="R180"/>
<pin name="INT_CAM" x="15.24" y="20.32" length="short" direction="pas" rot="R180"/>
<pin name="MOSI" x="15.24" y="17.78" length="short" direction="pas" rot="R180"/>
<pin name="MISO" x="15.24" y="15.24" length="short" direction="pas" rot="R180"/>
<pin name="SCK" x="15.24" y="12.7" length="short" direction="pas" rot="R180"/>
<pin name="RSTN" x="15.24" y="10.16" length="short" direction="pas" rot="R180"/>
<pin name="PWR_D" x="15.24" y="7.62" length="short" direction="pas" rot="R180"/>
<pin name="SS5" x="15.24" y="5.08" length="short" direction="pas" rot="R180"/>
<pin name="SS4" x="15.24" y="2.54" length="short" direction="pas" rot="R180"/>
<pin name="SS3" x="15.24" y="0" length="short" direction="pas" rot="R180"/>
<pin name="SS2" x="15.24" y="-2.54" length="short" direction="pas" rot="R180"/>
<pin name="SS1" x="15.24" y="-5.08" length="short" direction="pas" rot="R180"/>
<pin name="D1" x="15.24" y="-7.62" length="short" direction="pas" rot="R180"/>
<pin name="D2" x="15.24" y="-10.16" length="short" direction="pas" rot="R180"/>
<pin name="5V" x="15.24" y="-22.86" length="short" direction="pas" rot="R180"/>
<pin name="D6" x="15.24" y="-20.32" length="short" direction="pas" rot="R180"/>
<pin name="D5" x="15.24" y="-17.78" length="short" direction="pas" rot="R180"/>
<pin name="D4" x="15.24" y="-15.24" length="short" direction="pas" rot="R180"/>
<pin name="D3" x="15.24" y="-12.7" length="short" direction="pas" rot="R180"/>
<pin name="GND" x="15.24" y="-25.4" length="short" direction="pas" rot="R180"/>
<pin name="3.3V" x="15.24" y="-27.94" length="short" direction="pas" rot="R180"/>
<pin name="PWM2" x="15.24" y="-30.48" length="short" direction="pas" rot="R180"/>
<pin name="PWM3" x="15.24" y="-33.02" length="short" direction="pas" rot="R180"/>
<pin name="PWM4" x="15.24" y="-35.56" length="short" direction="pas" rot="R180"/>
<pin name="SD_CS" x="15.24" y="-38.1" length="short" direction="pas" rot="R180"/>
<pin name="CSN" x="15.24" y="-40.64" length="short" direction="pas" rot="R180"/>
<pin name="P_A4" x="-17.78" y="38.1" length="middle"/>
<pin name="P_A5" x="-17.78" y="35.56" length="middle"/>
<pin name="P_A6" x="-17.78" y="33.02" length="middle"/>
<pin name="P_A3" x="-17.78" y="30.48" length="middle"/>
<pin name="P_A2" x="-17.78" y="27.94" length="middle"/>
<pin name="P_A1" x="-17.78" y="25.4" length="middle"/>
<pin name="23" x="-17.78" y="22.86" length="middle"/>
<pin name="25" x="-17.78" y="20.32" length="middle"/>
<pin name="27" x="-17.78" y="17.78" length="middle"/>
<pin name="52" x="-17.78" y="15.24" length="middle"/>
<pin name="53" x="-17.78" y="12.7" length="middle"/>
<pin name="A11" x="-17.78" y="10.16" length="middle"/>
<pin name="DAC0" x="-17.78" y="7.62" length="middle"/>
<pin name="DAC1" x="-17.78" y="5.08" length="middle"/>
<pin name="RX3" x="-17.78" y="2.54" length="middle"/>
<pin name="TX3" x="-17.78" y="0" length="middle"/>
<pin name="RX0" x="-17.78" y="-2.54" length="middle"/>
<pin name="TX0" x="-17.78" y="-5.08" length="middle"/>
<pin name="5" x="-17.78" y="-7.62" length="middle"/>
<pin name="6" x="-17.78" y="-10.16" length="middle"/>
<pin name="7" x="-17.78" y="-12.7" length="middle"/>
<pin name="8" x="-17.78" y="-15.24" length="middle"/>
<pin name="11" x="-17.78" y="-17.78" length="middle"/>
<pin name="12" x="-17.78" y="-20.32" length="middle"/>
<pin name="13" x="-17.78" y="-22.86" length="middle"/>
<pin name="RESET" x="-17.78" y="-25.4" length="middle"/>
<pin name="IOREF" x="-17.78" y="-27.94" length="middle"/>
<pin name="CANRX" x="-17.78" y="-30.48" length="middle"/>
<pin name="CANTX" x="-17.78" y="-33.02" length="middle"/>
</symbol>
</symbols>
<devicesets>
<deviceset name="IDUINO_PC104" prefix="X">
<description>&lt;b&gt;PC/104 Standard 16 bit&lt;/b&gt;</description>
<gates>
<gate name="-J1" symbol="PC104-J1" x="0" y="0"/>
</gates>
<devices>
<device name="1" package="PC104-STANDARD">
<connects>
<connect gate="-J1" pin="11" pad="11"/>
<connect gate="-J1" pin="12" pad="12"/>
<connect gate="-J1" pin="13" pad="13"/>
<connect gate="-J1" pin="23" pad="23"/>
<connect gate="-J1" pin="25" pad="25"/>
<connect gate="-J1" pin="27" pad="27"/>
<connect gate="-J1" pin="3.3V" pad="3.3V"/>
<connect gate="-J1" pin="5" pad="5"/>
<connect gate="-J1" pin="52" pad="52"/>
<connect gate="-J1" pin="53" pad="53"/>
<connect gate="-J1" pin="5V" pad="5V"/>
<connect gate="-J1" pin="6" pad="6"/>
<connect gate="-J1" pin="7" pad="7"/>
<connect gate="-J1" pin="8" pad="8"/>
<connect gate="-J1" pin="A11" pad="A11"/>
<connect gate="-J1" pin="CANRX" pad="CANRX"/>
<connect gate="-J1" pin="CANTX" pad="CANTX"/>
<connect gate="-J1" pin="CSN" pad="CSN_CAM"/>
<connect gate="-J1" pin="D1" pad="P_D1"/>
<connect gate="-J1" pin="D2" pad="P_D2"/>
<connect gate="-J1" pin="D3" pad="P_D3"/>
<connect gate="-J1" pin="D4" pad="P_D4"/>
<connect gate="-J1" pin="D5" pad="P_D5"/>
<connect gate="-J1" pin="D6" pad="P_D6"/>
<connect gate="-J1" pin="DAC0" pad="DAC0"/>
<connect gate="-J1" pin="DAC1" pad="DAC1"/>
<connect gate="-J1" pin="GND" pad="GND"/>
<connect gate="-J1" pin="INT_CAM" pad="PIN50"/>
<connect gate="-J1" pin="IOREF" pad="IOREF"/>
<connect gate="-J1" pin="MISO" pad="MISO"/>
<connect gate="-J1" pin="MOSI" pad="MOSI"/>
<connect gate="-J1" pin="NC" pad="SPARE"/>
<connect gate="-J1" pin="PWM2" pad="MAG3"/>
<connect gate="-J1" pin="PWM3" pad="MAG2"/>
<connect gate="-J1" pin="PWM4" pad="MAG1"/>
<connect gate="-J1" pin="PWR_D" pad="PIN22"/>
<connect gate="-J1" pin="P_A1" pad="A5"/>
<connect gate="-J1" pin="P_A2" pad="A6"/>
<connect gate="-J1" pin="P_A3" pad="A7"/>
<connect gate="-J1" pin="P_A4" pad="A8"/>
<connect gate="-J1" pin="P_A5" pad="A9"/>
<connect gate="-J1" pin="P_A6" pad="A10"/>
<connect gate="-J1" pin="RESET" pad="RESET"/>
<connect gate="-J1" pin="RSTN" pad="RST_SPI"/>
<connect gate="-J1" pin="RX0" pad="RX0"/>
<connect gate="-J1" pin="RX1" pad="TX_GPS"/>
<connect gate="-J1" pin="RX2" pad="XBEE_TX"/>
<connect gate="-J1" pin="RX3" pad="RX3"/>
<connect gate="-J1" pin="SAL_SEL" pad="PIN51"/>
<connect gate="-J1" pin="SCK" pad="SCK"/>
<connect gate="-J1" pin="SCL" pad="SCL_IMU"/>
<connect gate="-J1" pin="SCL1" pad="SCL_CAM"/>
<connect gate="-J1" pin="SDA" pad="SDA_IMU"/>
<connect gate="-J1" pin="SDA1" pad="SDA_CAM"/>
<connect gate="-J1" pin="SD_CS" pad="SDCS_CAM"/>
<connect gate="-J1" pin="SS1" pad="A0"/>
<connect gate="-J1" pin="SS2" pad="A1"/>
<connect gate="-J1" pin="SS3" pad="A2"/>
<connect gate="-J1" pin="SS4" pad="A3"/>
<connect gate="-J1" pin="SS5" pad="A4"/>
<connect gate="-J1" pin="TX0" pad="TX0"/>
<connect gate="-J1" pin="TX1" pad="RX_GPS"/>
<connect gate="-J1" pin="TX2" pad="XBEE_RX"/>
<connect gate="-J1" pin="TX3" pad="TX3"/>
</connects>
<technologies>
<technology name=""/>
</technologies>
</device>
</devices>
</deviceset>
</devicesets>
</library>
<library name="Ada-10DOF-IMU">
<packages>
<package name="10DOF-IMU">
<wire x1="0" y1="-2.54" x2="33.02" y2="-2.54" width="0.127" layer="21"/>
<hole x="0" y="0" drill="2.032"/>
<hole x="33.02" y="0" drill="2.032"/>
<wire x1="0" y1="-2.54" x2="-2.54" y2="0" width="0.127" layer="21" curve="-90"/>
<wire x1="0" y1="2.54" x2="-2.54" y2="0" width="0.127" layer="21" curve="90"/>
<wire x1="33.02" y1="-2.54" x2="35.56" y2="0" width="0.127" layer="21" curve="90"/>
<wire x1="35.56" y1="0" x2="33.02" y2="2.54" width="0.127" layer="21" curve="90"/>
<wire x1="33.02" y1="2.54" x2="31.75" y2="2.54" width="0.127" layer="21"/>
<wire x1="0" y1="2.54" x2="1.27" y2="2.54" width="0.127" layer="21"/>
<hole x="0" y="17.78" drill="2.032"/>
<hole x="33.02" y="17.78" drill="2.032"/>
<wire x1="0" y1="15.24" x2="-2.54" y2="17.78" width="0.127" layer="21" curve="-90"/>
<wire x1="0" y1="20.32" x2="-2.54" y2="17.78" width="0.127" layer="21" curve="90"/>
<wire x1="33.02" y1="15.24" x2="35.56" y2="17.78" width="0.127" layer="21" curve="90"/>
<wire x1="33.02" y1="20.32" x2="35.56" y2="17.78" width="0.127" layer="21" curve="-90"/>
<wire x1="0" y1="15.24" x2="1.27" y2="15.24" width="0.127" layer="21"/>
<wire x1="1.27" y1="15.24" x2="1.27" y2="2.54" width="0.127" layer="21"/>
<wire x1="0" y1="20.32" x2="33.02" y2="20.32" width="0.127" layer="21"/>
<wire x1="33.02" y1="15.24" x2="31.75" y2="15.24" width="0.127" layer="21"/>
<wire x1="31.75" y1="15.24" x2="31.75" y2="2.54" width="0.127" layer="21"/>
<pad name="VIN" x="5.08" y="0" drill="0.8" shape="square"/>
<pad name="3VO" x="7.62" y="0" drill="0.8" diameter="1.27"/>
<pad name="GND" x="10.16" y="0" drill="0.8"/>
<pad name="SCL" x="12.7" y="0" drill="0.8"/>
<pad name="SDA" x="15.24" y="0" drill="0.8"/>
<pad name="GINT" x="17.78" y="0" drill="0.8"/>
<pad name="GRDY" x="20.32" y="0" drill="0.8"/>
<pad name="LIN1" x="22.86" y="0" drill="0.8"/>
<pad name="LIN2" x="25.4" y="0" drill="0.8"/>
<pad name="LRDY" x="27.94" y="0" drill="0.8"/>
<text x="4.445" y="-3.81" size="0.6096" layer="49">VIN</text>
<text x="6.985" y="-3.81" size="0.6096" layer="49">3Vo</text>
<text x="9.525" y="-3.81" size="0.6096" layer="49">GND</text>
<text x="12.065" y="-3.81" size="0.6096" layer="49">SCL</text>
<text x="14.605" y="-3.81" size="0.6096" layer="49">SDA</text>
<text x="17.145" y="-3.81" size="0.6096" layer="49">GINT</text>
<text x="19.685" y="-3.81" size="0.6096" layer="49">GRDY</text>
<text x="22.225" y="-3.81" size="0.6096" layer="49">LIN1</text>
<text x="24.765" y="-3.81" size="0.6096" layer="49">LIN2</text>
<text x="27.305" y="-3.81" size="0.6096" layer="49">LRDY</text>
<text x="13.97" y="20.955" size="1.27" layer="49">X-&gt;</text>
<text x="20.32" y="20.955" size="1.27" layer="49">Y^</text>
<text x="26.67" y="20.955" size="1.27" layer="49">Z o</text>
<text x="-1.27" y="20.955" size="1.27" layer="21" font="vector">&gt;NAME</text>
</package>
</packages>
<symbols>
<symbol name="10DOF-IMU">
<description>Adafruit 10DOF IMU</description>
<wire x1="-10.16" y1="-10.16" x2="10.16" y2="-10.16" width="0.254" layer="94"/>
<wire x1="10.16" y1="-10.16" x2="10.16" y2="10.16" width="0.254" layer="94"/>
<wire x1="10.16" y1="10.16" x2="-10.16" y2="10.16" width="0.254" layer="94"/>
<wire x1="-10.16" y1="10.16" x2="-10.16" y2="-10.16" width="0.254" layer="94"/>
<pin name="VIN" x="-15.24" y="5.08" length="middle"/>
<pin name="3VO" x="-15.24" y="2.54" length="middle"/>
<pin name="GND" x="-15.24" y="0" length="middle"/>
<pin name="SCL" x="-15.24" y="-2.54" length="middle"/>
<pin name="SDA" x="-15.24" y="-5.08" length="middle"/>
<pin name="GINT" x="15.24" y="5.08" length="middle" rot="R180"/>
<pin name="GRDY" x="15.24" y="2.54" length="middle" rot="R180"/>
<pin name="LIN1" x="15.24" y="0" length="middle" rot="R180"/>
<pin name="LIN2" x="15.24" y="-2.54" length="middle" rot="R180"/>
<pin name="LRDY" x="15.24" y="-5.08" length="middle" rot="R180"/>
<text x="-10.16" y="10.922" size="1.778" layer="95" font="vector">&gt;NAME</text>
<text x="-10.16" y="-12.7" size="1.778" layer="96" font="vector">&gt;VALUE</text>
</symbol>
</symbols>
<devicesets>
<deviceset name="10DOF-IMU" prefix="IMU">
<gates>
<gate name="G$1" symbol="10DOF-IMU" x="0" y="0"/>
</gates>
<devices>
<device name="-10DOF-IMU" package="10DOF-IMU">
<connects>
<connect gate="G$1" pin="3VO" pad="3VO"/>
<connect gate="G$1" pin="GINT" pad="GINT"/>
<connect gate="G$1" pin="GND" pad="GND"/>
<connect gate="G$1" pin="GRDY" pad="GRDY"/>
<connect gate="G$1" pin="LIN1" pad="LIN1"/>
<connect gate="G$1" pin="LIN2" pad="LIN2"/>
<connect gate="G$1" pin="LRDY" pad="LRDY"/>
<connect gate="G$1" pin="SCL" pad="SCL"/>
<connect gate="G$1" pin="SDA" pad="SDA"/>
<connect gate="G$1" pin="VIN" pad="VIN"/>
</connects>
<technologies>
<technology name=""/>
</technologies>
</device>
</devices>
</deviceset>
</devicesets>
</library>
<library name="Ada-GPS">
<packages>
<package name="ADA-GPS">
<wire x1="-12.7" y1="17.018" x2="-12.7" y2="-17.018" width="0.127" layer="21"/>
<wire x1="-12.7" y1="-17.018" x2="12.7" y2="-17.018" width="0.127" layer="21"/>
<wire x1="12.7" y1="-17.018" x2="12.7" y2="17.018" width="0.127" layer="21"/>
<wire x1="12.7" y1="17.018" x2="-12.7" y2="17.018" width="0.127" layer="21"/>
<hole x="-10.0838" y="14.478" drill="2.032"/>
<hole x="10.0838" y="14.478" drill="2.032"/>
<pad name="TX" x="0" y="-15.24" drill="0.8"/>
<pad name="FIX" x="-2.54" y="-15.24" drill="0.8"/>
<pad name="VBAT" x="-5.08" y="-15.24" drill="0.8"/>
<pad name="EN" x="-7.62" y="-15.24" drill="0.8"/>
<pad name="3.3V" x="-10.16" y="-15.24" drill="0.8"/>
<pad name="RX" x="2.54" y="-15.24" drill="0.8"/>
<pad name="GND" x="5.08" y="-15.24" drill="0.8"/>
<pad name="VIN" x="7.62" y="-15.24" drill="0.8"/>
<pad name="PPS" x="10.16" y="-15.24" drill="0.8"/>
<text x="-10.922" y="-18.415" size="0.6096" layer="27">3.3V</text>
<text x="-8.128" y="-18.415" size="0.6096" layer="27">EN</text>
<text x="-6.096" y="-18.415" size="0.6096" layer="27">VBAT</text>
<text x="-3.048" y="-18.415" size="0.6096" layer="27">FIX</text>
<text x="-0.508" y="-18.415" size="0.6096" layer="27">TX</text>
<text x="2.032" y="-18.415" size="0.6096" layer="27">RX</text>
<text x="4.699" y="-18.415" size="0.6096" layer="27">GND</text>
<text x="7.112" y="-18.415" size="0.6096" layer="27">VIN</text>
<text x="9.398" y="-18.415" size="0.6096" layer="27">PPS</text>
<text x="-12.7" y="17.78" size="1.27" layer="21" font="vector">&gt;NAME</text>
</package>
</packages>
<symbols>
<symbol name="ADA-GPS">
<wire x1="-7.62" y1="-15.24" x2="7.62" y2="-15.24" width="0.254" layer="94"/>
<wire x1="7.62" y1="-15.24" x2="7.62" y2="15.24" width="0.254" layer="94"/>
<wire x1="7.62" y1="15.24" x2="-7.62" y2="15.24" width="0.254" layer="94"/>
<wire x1="-7.62" y1="15.24" x2="-7.62" y2="-15.24" width="0.254" layer="94"/>
<pin name="3.3V" x="-12.7" y="10.16" length="middle"/>
<pin name="EN" x="-12.7" y="7.62" length="middle"/>
<pin name="VBAT" x="-12.7" y="5.08" length="middle"/>
<pin name="FIX" x="-12.7" y="2.54" length="middle"/>
<pin name="TX" x="-12.7" y="0" length="middle"/>
<pin name="RX" x="-12.7" y="-2.54" length="middle"/>
<pin name="GND" x="-12.7" y="-5.08" length="middle"/>
<pin name="VIN" x="-12.7" y="-7.62" length="middle"/>
<pin name="PPS" x="-12.7" y="-10.16" length="middle"/>
<text x="-7.62" y="16.002" size="1.778" layer="95" font="vector">&gt;NAME</text>
<text x="-7.62" y="-17.78" size="1.778" layer="96" font="vector">&gt;VALUE</text>
</symbol>
</symbols>
<devicesets>
<deviceset name="ADA-GPS" prefix="GPS">
<gates>
<gate name="G$1" symbol="ADA-GPS" x="0" y="-15.24"/>
</gates>
<devices>
<device name="" package="ADA-GPS">
<connects>
<connect gate="G$1" pin="3.3V" pad="3.3V"/>
<connect gate="G$1" pin="EN" pad="EN"/>
<connect gate="G$1" pin="FIX" pad="FIX"/>
<connect gate="G$1" pin="GND" pad="GND"/>
<connect gate="G$1" pin="PPS" pad="PPS"/>
<connect gate="G$1" pin="RX" pad="RX"/>
<connect gate="G$1" pin="TX" pad="TX"/>
<connect gate="G$1" pin="VBAT" pad="VBAT"/>
<connect gate="G$1" pin="VIN" pad="VIN"/>
</connects>
<technologies>
<technology name=""/>
</technologies>
</device>
</devices>
</deviceset>
</devicesets>
</library>
<library name="MOTCON-TB6612FNG">
<packages>
<package name="MOTCON-TB6612FNG">
<pad name="VM" x="0" y="0" drill="0.8"/>
<pad name="PWMA" x="15.24" y="0" drill="0.8"/>
<pad name="VCC" x="0" y="-2.54" drill="0.8"/>
<pad name="GND_LEFT_MID" x="0" y="-5.08" drill="0.8"/>
<pad name="A01" x="0" y="-7.62" drill="0.8"/>
<pad name="A02" x="0" y="-10.16" drill="0.8"/>
<pad name="B02" x="0" y="-12.7" drill="0.8"/>
<pad name="B01" x="0" y="-15.24" drill="0.8"/>
<pad name="GND_BOT_LEFT" x="0" y="-17.78" drill="0.8"/>
<pad name="AIN2" x="15.24" y="-2.54" drill="0.8"/>
<pad name="AIN1" x="15.24" y="-5.08" drill="0.8"/>
<pad name="STBY" x="15.24" y="-7.62" drill="0.8"/>
<pad name="BIN1" x="15.24" y="-10.16" drill="0.8"/>
<pad name="BIN2" x="15.24" y="-12.7" drill="0.8"/>
<pad name="PWMB" x="15.24" y="-15.24" drill="0.8"/>
<pad name="GND_BOT_RIGHT" x="15.24" y="-17.78" drill="0.8"/>
<wire x1="7.62" y1="1.524" x2="-2.54" y2="1.524" width="0.127" layer="21"/>
<wire x1="-2.54" y1="1.524" x2="-2.54" y2="-19.304" width="0.127" layer="21"/>
<wire x1="-2.54" y1="-19.304" x2="18.034" y2="-19.304" width="0.127" layer="21"/>
<wire x1="18.034" y1="-19.304" x2="18.034" y2="1.524" width="0.127" layer="21"/>
<wire x1="18.034" y1="1.524" x2="7.62" y2="1.524" width="0.127" layer="21"/>
<text x="-2.54" y="2.032" size="1.27" layer="21" font="vector">&gt;NAME</text>
<text x="1.27" y="0" size="0.4064" layer="21" font="vector">VM</text>
<text x="16.51" y="-17.78" size="0.4064" layer="21" font="vector">GND</text>
</package>
</packages>
<symbols>
<symbol name="MOTCON-TB6612FNG">
<wire x1="-10.16" y1="7.62" x2="-10.16" y2="-15.24" width="0.254" layer="94"/>
<wire x1="-10.16" y1="-15.24" x2="10.16" y2="-15.24" width="0.254" layer="94"/>
<wire x1="10.16" y1="-15.24" x2="10.16" y2="7.62" width="0.254" layer="94"/>
<wire x1="10.16" y1="7.62" x2="-10.16" y2="7.62" width="0.254" layer="94"/>
<pin name="VM" x="-15.24" y="5.08" length="middle"/>
<pin name="VCC" x="-15.24" y="2.54" length="middle"/>
<pin name="GND-LEFT" x="-15.24" y="0" length="middle"/>
<pin name="A01" x="-15.24" y="-2.54" length="middle"/>
<pin name="A02" x="-15.24" y="-5.08" length="middle"/>
<pin name="B02" x="-15.24" y="-7.62" length="middle"/>
<pin name="B01" x="-15.24" y="-10.16" length="middle"/>
<pin name="GND-LB" x="-15.24" y="-12.7" length="middle"/>
<pin name="PWMA" x="15.24" y="5.08" length="middle" rot="R180"/>
<pin name="AIN2" x="15.24" y="2.54" length="middle" rot="R180"/>
<pin name="AIN1" x="15.24" y="0" length="middle" rot="R180"/>
<pin name="STBY" x="15.24" y="-2.54" length="middle" rot="R180"/>
<pin name="BIN1" x="15.24" y="-5.08" length="middle" rot="R180"/>
<pin name="BIN2" x="15.24" y="-7.62" length="middle" rot="R180"/>
<pin name="PWMB" x="15.24" y="-10.16" length="middle" rot="R180"/>
<pin name="GND-RB" x="15.24" y="-12.7" length="middle" rot="R180"/>
<text x="-10.16" y="8.382" size="1.27" layer="95" font="vector">&gt;NAME</text>
<text x="-10.16" y="-17.272" size="1.27" layer="96" font="vector">&gt;VALUE</text>
</symbol>
</symbols>
<devicesets>
<deviceset name="MOTCON-TB6612FNG">
<gates>
<gate name="G$1" symbol="MOTCON-TB6612FNG" x="0" y="2.54"/>
</gates>
<devices>
<device name="" package="MOTCON-TB6612FNG">
<connects>
<connect gate="G$1" pin="A01" pad="A01"/>
<connect gate="G$1" pin="A02" pad="A02"/>
<connect gate="G$1" pin="AIN1" pad="AIN1"/>
<connect gate="G$1" pin="AIN2" pad="AIN2"/>
<connect gate="G$1" pin="B01" pad="B01"/>
<connect gate="G$1" pin="B02" pad="B02"/>
<connect gate="G$1" pin="BIN1" pad="BIN1"/>
<connect gate="G$1" pin="BIN2" pad="BIN2"/>
<connect gate="G$1" pin="GND-LB" pad="GND_BOT_LEFT"/>
<connect gate="G$1" pin="GND-LEFT" pad="GND_LEFT_MID"/>
<connect gate="G$1" pin="GND-RB" pad="GND_BOT_RIGHT"/>
<connect gate="G$1" pin="PWMA" pad="PWMA"/>
<connect gate="G$1" pin="PWMB" pad="PWMB"/>
<connect gate="G$1" pin="STBY" pad="STBY"/>
<connect gate="G$1" pin="VCC" pad="VCC"/>
<connect gate="G$1" pin="VM" pad="VM"/>
</connects>
<technologies>
<technology name=""/>
</technologies>
</device>
</devices>
</deviceset>
</devicesets>
</library>
<library name="pinhead">
<description>&lt;b&gt;Pin Header Connectors&lt;/b&gt;&lt;p&gt;
&lt;author&gt;Created by librarian@cadsoft.de&lt;/author&gt;</description>
<packages>
<package name="1X11">
<description>&lt;b&gt;PIN HEADER&lt;/b&gt;</description>
<wire x1="9.525" y1="1.27" x2="10.795" y2="1.27" width="0.1524" layer="21"/>
<wire x1="10.795" y1="1.27" x2="11.43" y2="0.635" width="0.1524" layer="21"/>
<wire x1="11.43" y1="0.635" x2="11.43" y2="-0.635" width="0.1524" layer="21"/>
<wire x1="11.43" y1="-0.635" x2="10.795" y2="-1.27" width="0.1524" layer="21"/>
<wire x1="6.35" y1="0.635" x2="6.985" y2="1.27" width="0.1524" layer="21"/>
<wire x1="6.985" y1="1.27" x2="8.255" y2="1.27" width="0.1524" layer="21"/>
<wire x1="8.255" y1="1.27" x2="8.89" y2="0.635" width="0.1524" layer="21"/>
<wire x1="8.89" y1="0.635" x2="8.89" y2="-0.635" width="0.1524" layer="21"/>
<wire x1="8.89" y1="-0.635" x2="8.255" y2="-1.27" width="0.1524" layer="21"/>
<wire x1="8.255" y1="-1.27" x2="6.985" y2="-1.27" width="0.1524" layer="21"/>
<wire x1="6.985" y1="-1.27" x2="6.35" y2="-0.635" width="0.1524" layer="21"/>
<wire x1="9.525" y1="1.27" x2="8.89" y2="0.635" width="0.1524" layer="21"/>
<wire x1="8.89" y1="-0.635" x2="9.525" y2="-1.27" width="0.1524" layer="21"/>
<wire x1="10.795" y1="-1.27" x2="9.525" y2="-1.27" width="0.1524" layer="21"/>
<wire x1="1.905" y1="1.27" x2="3.175" y2="1.27" width="0.1524" layer="21"/>
<wire x1="3.175" y1="1.27" x2="3.81" y2="0.635" width="0.1524" layer="21"/>
<wire x1="3.81" y1="0.635" x2="3.81" y2="-0.635" width="0.1524" layer="21"/>
<wire x1="3.81" y1="-0.635" x2="3.175" y2="-1.27" width="0.1524" layer="21"/>
<wire x1="3.81" y1="0.635" x2="4.445" y2="1.27" width="0.1524" layer="21"/>
<wire x1="4.445" y1="1.27" x2="5.715" y2="1.27" width="0.1524" layer="21"/>
<wire x1="5.715" y1="1.27" x2="6.35" y2="0.635" width="0.1524" layer="21"/>
<wire x1="6.35" y1="0.635" x2="6.35" y2="-0.635" width="0.1524" layer="21"/>
<wire x1="6.35" y1="-0.635" x2="5.715" y2="-1.27" width="0.1524" layer="21"/>
<wire x1="5.715" y1="-1.27" x2="4.445" y2="-1.27" width="0.1524" layer="21"/>
<wire x1="4.445" y1="-1.27" x2="3.81" y2="-0.635" width="0.1524" layer="21"/>
<wire x1="-1.27" y1="0.635" x2="-0.635" y2="1.27" width="0.1524" layer="21"/>
<wire x1="-0.635" y1="1.27" x2="0.635" y2="1.27" width="0.1524" layer="21"/>
<wire x1="0.635" y1="1.27" x2="1.27" y2="0.635" width="0.1524" layer="21"/>
<wire x1="1.27" y1="0.635" x2="1.27" y2="-0.635" width="0.1524" layer="21"/>
<wire x1="1.27" y1="-0.635" x2="0.635" y2="-1.27" width="0.1524" layer="21"/>
<wire x1="0.635" y1="-1.27" x2="-0.635" y2="-1.27" width="0.1524" layer="21"/>
<wire x1="-0.635" y1="-1.27" x2="-1.27" y2="-0.635" width="0.1524" layer="21"/>
<wire x1="1.905" y1="1.27" x2="1.27" y2="0.635" width="0.1524" layer="21"/>
<wire x1="1.27" y1="-0.635" x2="1.905" y2="-1.27" width="0.1524" layer="21"/>
<wire x1="3.175" y1="-1.27" x2="1.905" y2="-1.27" width="0.1524" layer="21"/>
<wire x1="-5.715" y1="1.27" x2="-4.445" y2="1.27" width="0.1524" layer="21"/>
<wire x1="-4.445" y1="1.27" x2="-3.81" y2="0.635" width="0.1524" layer="21"/>
<wire x1="-3.81" y1="0.635" x2="-3.81" y2="-0.635" width="0.1524" layer="21"/>
<wire x1="-3.81" y1="-0.635" x2="-4.445" y2="-1.27" width="0.1524" layer="21"/>
<wire x1="-3.81" y1="0.635" x2="-3.175" y2="1.27" width="0.1524" layer="21"/>
<wire x1="-3.175" y1="1.27" x2="-1.905" y2="1.27" width="0.1524" layer="21"/>
<wire x1="-1.905" y1="1.27" x2="-1.27" y2="0.635" width="0.1524" layer="21"/>
<wire x1="-1.27" y1="0.635" x2="-1.27" y2="-0.635" width="0.1524" layer="21"/>
<wire x1="-1.27" y1="-0.635" x2="-1.905" y2="-1.27" width="0.1524" layer="21"/>
<wire x1="-1.905" y1="-1.27" x2="-3.175" y2="-1.27" width="0.1524" layer="21"/>
<wire x1="-3.175" y1="-1.27" x2="-3.81" y2="-0.635" width="0.1524" layer="21"/>
<wire x1="-8.89" y1="0.635" x2="-8.255" y2="1.27" width="0.1524" layer="21"/>
<wire x1="-8.255" y1="1.27" x2="-6.985" y2="1.27" width="0.1524" layer="21"/>
<wire x1="-6.985" y1="1.27" x2="-6.35" y2="0.635" width="0.1524" layer="21"/>
<wire x1="-6.35" y1="0.635" x2="-6.35" y2="-0.635" width="0.1524" layer="21"/>
<wire x1="-6.35" y1="-0.635" x2="-6.985" y2="-1.27" width="0.1524" layer="21"/>
<wire x1="-6.985" y1="-1.27" x2="-8.255" y2="-1.27" width="0.1524" layer="21"/>
<wire x1="-8.255" y1="-1.27" x2="-8.89" y2="-0.635" width="0.1524" layer="21"/>
<wire x1="-5.715" y1="1.27" x2="-6.35" y2="0.635" width="0.1524" layer="21"/>
<wire x1="-6.35" y1="-0.635" x2="-5.715" y2="-1.27" width="0.1524" layer="21"/>
<wire x1="-4.445" y1="-1.27" x2="-5.715" y2="-1.27" width="0.1524" layer="21"/>
<wire x1="-13.335" y1="1.27" x2="-12.065" y2="1.27" width="0.1524" layer="21"/>
<wire x1="-12.065" y1="1.27" x2="-11.43" y2="0.635" width="0.1524" layer="21"/>
<wire x1="-11.43" y1="0.635" x2="-11.43" y2="-0.635" width="0.1524" layer="21"/>
<wire x1="-11.43" y1="-0.635" x2="-12.065" y2="-1.27" width="0.1524" layer="21"/>
<wire x1="-11.43" y1="0.635" x2="-10.795" y2="1.27" width="0.1524" layer="21"/>
<wire x1="-10.795" y1="1.27" x2="-9.525" y2="1.27" width="0.1524" layer="21"/>
<wire x1="-9.525" y1="1.27" x2="-8.89" y2="0.635" width="0.1524" layer="21"/>
<wire x1="-8.89" y1="0.635" x2="-8.89" y2="-0.635" width="0.1524" layer="21"/>
<wire x1="-8.89" y1="-0.635" x2="-9.525" y2="-1.27" width="0.1524" layer="21"/>
<wire x1="-9.525" y1="-1.27" x2="-10.795" y2="-1.27" width="0.1524" layer="21"/>
<wire x1="-10.795" y1="-1.27" x2="-11.43" y2="-0.635" width="0.1524" layer="21"/>
<wire x1="-13.97" y1="0.635" x2="-13.97" y2="-0.635" width="0.1524" layer="21"/>
<wire x1="-13.335" y1="1.27" x2="-13.97" y2="0.635" width="0.1524" layer="21"/>
<wire x1="-13.97" y1="-0.635" x2="-13.335" y2="-1.27" width="0.1524" layer="21"/>
<wire x1="-12.065" y1="-1.27" x2="-13.335" y2="-1.27" width="0.1524" layer="21"/>
<wire x1="12.065" y1="1.27" x2="13.335" y2="1.27" width="0.1524" layer="21"/>
<wire x1="13.335" y1="1.27" x2="13.97" y2="0.635" width="0.1524" layer="21"/>
<wire x1="13.97" y1="0.635" x2="13.97" y2="-0.635" width="0.1524" layer="21"/>
<wire x1="13.97" y1="-0.635" x2="13.335" y2="-1.27" width="0.1524" layer="21"/>
<wire x1="12.065" y1="1.27" x2="11.43" y2="0.635" width="0.1524" layer="21"/>
<wire x1="11.43" y1="-0.635" x2="12.065" y2="-1.27" width="0.1524" layer="21"/>
<wire x1="13.335" y1="-1.27" x2="12.065" y2="-1.27" width="0.1524" layer="21"/>
<pad name="1" x="-12.7" y="0" drill="1.016" shape="long" rot="R90"/>
<pad name="2" x="-10.16" y="0" drill="1.016" shape="long" rot="R90"/>
<pad name="3" x="-7.62" y="0" drill="1.016" shape="long" rot="R90"/>
<pad name="4" x="-5.08" y="0" drill="1.016" shape="long" rot="R90"/>
<pad name="5" x="-2.54" y="0" drill="1.016" shape="long" rot="R90"/>
<pad name="6" x="0" y="0" drill="1.016" shape="long" rot="R90"/>
<pad name="7" x="2.54" y="0" drill="1.016" shape="long" rot="R90"/>
<pad name="8" x="5.08" y="0" drill="1.016" shape="long" rot="R90"/>
<pad name="9" x="7.62" y="0" drill="1.016" shape="long" rot="R90"/>
<pad name="10" x="10.16" y="0" drill="1.016" shape="long" rot="R90"/>
<pad name="11" x="12.7" y="0" drill="1.016" shape="long" rot="R90"/>
<text x="-14.0462" y="1.8288" size="1.27" layer="25" ratio="10">&gt;NAME</text>
<text x="-13.97" y="-3.175" size="1.27" layer="27">&gt;VALUE</text>
<rectangle x1="9.906" y1="-0.254" x2="10.414" y2="0.254" layer="51"/>
<rectangle x1="7.366" y1="-0.254" x2="7.874" y2="0.254" layer="51"/>
<rectangle x1="4.826" y1="-0.254" x2="5.334" y2="0.254" layer="51"/>
<rectangle x1="2.286" y1="-0.254" x2="2.794" y2="0.254" layer="51"/>
<rectangle x1="-0.254" y1="-0.254" x2="0.254" y2="0.254" layer="51"/>
<rectangle x1="-2.794" y1="-0.254" x2="-2.286" y2="0.254" layer="51"/>
<rectangle x1="-5.334" y1="-0.254" x2="-4.826" y2="0.254" layer="51"/>
<rectangle x1="-7.874" y1="-0.254" x2="-7.366" y2="0.254" layer="51"/>
<rectangle x1="-10.414" y1="-0.254" x2="-9.906" y2="0.254" layer="51"/>
<rectangle x1="-12.954" y1="-0.254" x2="-12.446" y2="0.254" layer="51"/>
<rectangle x1="12.446" y1="-0.254" x2="12.954" y2="0.254" layer="51"/>
</package>
<package name="1X11/90">
<description>&lt;b&gt;PIN HEADER&lt;/b&gt;</description>
<wire x1="-13.97" y1="-1.905" x2="-11.43" y2="-1.905" width="0.1524" layer="21"/>
<wire x1="-11.43" y1="-1.905" x2="-11.43" y2="0.635" width="0.1524" layer="21"/>
<wire x1="-11.43" y1="0.635" x2="-13.97" y2="0.635" width="0.1524" layer="21"/>
<wire x1="-13.97" y1="0.635" x2="-13.97" y2="-1.905" width="0.1524" layer="21"/>
<wire x1="-12.7" y1="6.985" x2="-12.7" y2="1.27" width="0.762" layer="21"/>
<wire x1="-11.43" y1="-1.905" x2="-8.89" y2="-1.905" width="0.1524" layer="21"/>
<wire x1="-8.89" y1="-1.905" x2="-8.89" y2="0.635" width="0.1524" layer="21"/>
<wire x1="-8.89" y1="0.635" x2="-11.43" y2="0.635" width="0.1524" layer="21"/>
<wire x1="-10.16" y1="6.985" x2="-10.16" y2="1.27" width="0.762" layer="21"/>
<wire x1="-8.89" y1="-1.905" x2="-6.35" y2="-1.905" width="0.1524" layer="21"/>
<wire x1="-6.35" y1="-1.905" x2="-6.35" y2="0.635" width="0.1524" layer="21"/>
<wire x1="-6.35" y1="0.635" x2="-8.89" y2="0.635" width="0.1524" layer="21"/>
<wire x1="-7.62" y1="6.985" x2="-7.62" y2="1.27" width="0.762" layer="21"/>
<wire x1="-6.35" y1="-1.905" x2="-3.81" y2="-1.905" width="0.1524" layer="21"/>
<wire x1="-3.81" y1="-1.905" x2="-3.81" y2="0.635" width="0.1524" layer="21"/>
<wire x1="-3.81" y1="0.635" x2="-6.35" y2="0.635" width="0.1524" layer="21"/>
<wire x1="-5.08" y1="6.985" x2="-5.08" y2="1.27" width="0.762" layer="21"/>
<wire x1="-3.81" y1="-1.905" x2="-1.27" y2="-1.905" width="0.1524" layer="21"/>
<wire x1="-1.27" y1="-1.905" x2="-1.27" y2="0.635" width="0.1524" layer="21"/>
<wire x1="-1.27" y1="0.635" x2="-3.81" y2="0.635" width="0.1524" layer="21"/>
<wire x1="-2.54" y1="6.985" x2="-2.54" y2="1.27" width="0.762" layer="21"/>
<wire x1="-1.27" y1="-1.905" x2="1.27" y2="-1.905" width="0.1524" layer="21"/>
<wire x1="1.27" y1="-1.905" x2="1.27" y2="0.635" width="0.1524" layer="21"/>
<wire x1="1.27" y1="0.635" x2="-1.27" y2="0.635" width="0.1524" layer="21"/>
<wire x1="0" y1="6.985" x2="0" y2="1.27" width="0.762" layer="21"/>
<wire x1="1.27" y1="-1.905" x2="3.81" y2="-1.905" width="0.1524" layer="21"/>
<wire x1="3.81" y1="-1.905" x2="3.81" y2="0.635" width="0.1524" layer="21"/>
<wire x1="3.81" y1="0.635" x2="1.27" y2="0.635" width="0.1524" layer="21"/>
<wire x1="2.54" y1="6.985" x2="2.54" y2="1.27" width="0.762" layer="21"/>
<wire x1="3.81" y1="-1.905" x2="6.35" y2="-1.905" width="0.1524" layer="21"/>
<wire x1="6.35" y1="-1.905" x2="6.35" y2="0.635" width="0.1524" layer="21"/>
<wire x1="6.35" y1="0.635" x2="3.81" y2="0.635" width="0.1524" layer="21"/>
<wire x1="5.08" y1="6.985" x2="5.08" y2="1.27" width="0.762" layer="21"/>
<wire x1="6.35" y1="-1.905" x2="8.89" y2="-1.905" width="0.1524" layer="21"/>
<wire x1="8.89" y1="-1.905" x2="8.89" y2="0.635" width="0.1524" layer="21"/>
<wire x1="8.89" y1="0.635" x2="6.35" y2="0.635" width="0.1524" layer="21"/>
<wire x1="7.62" y1="6.985" x2="7.62" y2="1.27" width="0.762" layer="21"/>
<wire x1="8.89" y1="-1.905" x2="11.43" y2="-1.905" width="0.1524" layer="21"/>
<wire x1="11.43" y1="-1.905" x2="11.43" y2="0.635" width="0.1524" layer="21"/>
<wire x1="11.43" y1="0.635" x2="8.89" y2="0.635" width="0.1524" layer="21"/>
<wire x1="10.16" y1="6.985" x2="10.16" y2="1.27" width="0.762" layer="21"/>
<wire x1="11.43" y1="-1.905" x2="13.97" y2="-1.905" width="0.1524" layer="21"/>
<wire x1="13.97" y1="-1.905" x2="13.97" y2="0.635" width="0.1524" layer="21"/>
<wire x1="13.97" y1="0.635" x2="11.43" y2="0.635" width="0.1524" layer="21"/>
<wire x1="12.7" y1="6.985" x2="12.7" y2="1.27" width="0.762" layer="21"/>
<pad name="1" x="-12.7" y="-3.81" drill="1.016" shape="long" rot="R90"/>
<pad name="2" x="-10.16" y="-3.81" drill="1.016" shape="long" rot="R90"/>
<pad name="3" x="-7.62" y="-3.81" drill="1.016" shape="long" rot="R90"/>
<pad name="4" x="-5.08" y="-3.81" drill="1.016" shape="long" rot="R90"/>
<pad name="5" x="-2.54" y="-3.81" drill="1.016" shape="long" rot="R90"/>
<pad name="6" x="0" y="-3.81" drill="1.016" shape="long" rot="R90"/>
<pad name="7" x="2.54" y="-3.81" drill="1.016" shape="long" rot="R90"/>
<pad name="8" x="5.08" y="-3.81" drill="1.016" shape="long" rot="R90"/>
<pad name="9" x="7.62" y="-3.81" drill="1.016" shape="long" rot="R90"/>
<pad name="10" x="10.16" y="-3.81" drill="1.016" shape="long" rot="R90"/>
<pad name="11" x="12.7" y="-3.81" drill="1.016" shape="long" rot="R90"/>
<text x="-14.605" y="-3.81" size="1.27" layer="25" ratio="10" rot="R90">&gt;NAME</text>
<text x="15.875" y="-4.445" size="1.27" layer="27" rot="R90">&gt;VALUE</text>
<rectangle x1="-13.081" y1="0.635" x2="-12.319" y2="1.143" layer="21"/>
<rectangle x1="-10.541" y1="0.635" x2="-9.779" y2="1.143" layer="21"/>
<rectangle x1="-8.001" y1="0.635" x2="-7.239" y2="1.143" layer="21"/>
<rectangle x1="-5.461" y1="0.635" x2="-4.699" y2="1.143" layer="21"/>
<rectangle x1="-2.921" y1="0.635" x2="-2.159" y2="1.143" layer="21"/>
<rectangle x1="-0.381" y1="0.635" x2="0.381" y2="1.143" layer="21"/>
<rectangle x1="2.159" y1="0.635" x2="2.921" y2="1.143" layer="21"/>
<rectangle x1="4.699" y1="0.635" x2="5.461" y2="1.143" layer="21"/>
<rectangle x1="7.239" y1="0.635" x2="8.001" y2="1.143" layer="21"/>
<rectangle x1="9.779" y1="0.635" x2="10.541" y2="1.143" layer="21"/>
<rectangle x1="12.319" y1="0.635" x2="13.081" y2="1.143" layer="21"/>
<rectangle x1="-13.081" y1="-2.921" x2="-12.319" y2="-1.905" layer="21"/>
<rectangle x1="-10.541" y1="-2.921" x2="-9.779" y2="-1.905" layer="21"/>
<rectangle x1="-8.001" y1="-2.921" x2="-7.239" y2="-1.905" layer="21"/>
<rectangle x1="-5.461" y1="-2.921" x2="-4.699" y2="-1.905" layer="21"/>
<rectangle x1="-2.921" y1="-2.921" x2="-2.159" y2="-1.905" layer="21"/>
<rectangle x1="-0.381" y1="-2.921" x2="0.381" y2="-1.905" layer="21"/>
<rectangle x1="2.159" y1="-2.921" x2="2.921" y2="-1.905" layer="21"/>
<rectangle x1="4.699" y1="-2.921" x2="5.461" y2="-1.905" layer="21"/>
<rectangle x1="7.239" y1="-2.921" x2="8.001" y2="-1.905" layer="21"/>
<rectangle x1="9.779" y1="-2.921" x2="10.541" y2="-1.905" layer="21"/>
<rectangle x1="12.319" y1="-2.921" x2="13.081" y2="-1.905" layer="21"/>
</package>
<package name="1X04">
<description>&lt;b&gt;PIN HEADER&lt;/b&gt;</description>
<wire x1="0" y1="0.635" x2="0.635" y2="1.27" width="0.1524" layer="21"/>
<wire x1="0.635" y1="1.27" x2="1.905" y2="1.27" width="0.1524" layer="21"/>
<wire x1="1.905" y1="1.27" x2="2.54" y2="0.635" width="0.1524" layer="21"/>
<wire x1="2.54" y1="0.635" x2="2.54" y2="-0.635" width="0.1524" layer="21"/>
<wire x1="2.54" y1="-0.635" x2="1.905" y2="-1.27" width="0.1524" layer="21"/>
<wire x1="1.905" y1="-1.27" x2="0.635" y2="-1.27" width="0.1524" layer="21"/>
<wire x1="0.635" y1="-1.27" x2="0" y2="-0.635" width="0.1524" layer="21"/>
<wire x1="-4.445" y1="1.27" x2="-3.175" y2="1.27" width="0.1524" layer="21"/>
<wire x1="-3.175" y1="1.27" x2="-2.54" y2="0.635" width="0.1524" layer="21"/>
<wire x1="-2.54" y1="0.635" x2="-2.54" y2="-0.635" width="0.1524" layer="21"/>
<wire x1="-2.54" y1="-0.635" x2="-3.175" y2="-1.27" width="0.1524" layer="21"/>
<wire x1="-2.54" y1="0.635" x2="-1.905" y2="1.27" width="0.1524" layer="21"/>
<wire x1="-1.905" y1="1.27" x2="-0.635" y2="1.27" width="0.1524" layer="21"/>
<wire x1="-0.635" y1="1.27" x2="0" y2="0.635" width="0.1524" layer="21"/>
<wire x1="0" y1="0.635" x2="0" y2="-0.635" width="0.1524" layer="21"/>
<wire x1="0" y1="-0.635" x2="-0.635" y2="-1.27" width="0.1524" layer="21"/>
<wire x1="-0.635" y1="-1.27" x2="-1.905" y2="-1.27" width="0.1524" layer="21"/>
<wire x1="-1.905" y1="-1.27" x2="-2.54" y2="-0.635" width="0.1524" layer="21"/>
<wire x1="-5.08" y1="0.635" x2="-5.08" y2="-0.635" width="0.1524" layer="21"/>
<wire x1="-4.445" y1="1.27" x2="-5.08" y2="0.635" width="0.1524" layer="21"/>
<wire x1="-5.08" y1="-0.635" x2="-4.445" y2="-1.27" width="0.1524" layer="21"/>
<wire x1="-3.175" y1="-1.27" x2="-4.445" y2="-1.27" width="0.1524" layer="21"/>
<wire x1="3.175" y1="1.27" x2="4.445" y2="1.27" width="0.1524" layer="21"/>
<wire x1="4.445" y1="1.27" x2="5.08" y2="0.635" width="0.1524" layer="21"/>
<wire x1="5.08" y1="0.635" x2="5.08" y2="-0.635" width="0.1524" layer="21"/>
<wire x1="5.08" y1="-0.635" x2="4.445" y2="-1.27" width="0.1524" layer="21"/>
<wire x1="3.175" y1="1.27" x2="2.54" y2="0.635" width="0.1524" layer="21"/>
<wire x1="2.54" y1="-0.635" x2="3.175" y2="-1.27" width="0.1524" layer="21"/>
<wire x1="4.445" y1="-1.27" x2="3.175" y2="-1.27" width="0.1524" layer="21"/>
<pad name="1" x="-3.81" y="0" drill="1.016" shape="long" rot="R90"/>
<pad name="2" x="-1.27" y="0" drill="1.016" shape="long" rot="R90"/>
<pad name="3" x="1.27" y="0" drill="1.016" shape="long" rot="R90"/>
<pad name="4" x="3.81" y="0" drill="1.016" shape="long" rot="R90"/>
<text x="-5.1562" y="1.8288" size="1.27" layer="25" ratio="10">&gt;NAME</text>
<text x="-5.08" y="-3.175" size="1.27" layer="27">&gt;VALUE</text>
<rectangle x1="1.016" y1="-0.254" x2="1.524" y2="0.254" layer="51"/>
<rectangle x1="-1.524" y1="-0.254" x2="-1.016" y2="0.254" layer="51"/>
<rectangle x1="-4.064" y1="-0.254" x2="-3.556" y2="0.254" layer="51"/>
<rectangle x1="3.556" y1="-0.254" x2="4.064" y2="0.254" layer="51"/>
</package>
<package name="1X04/90">
<description>&lt;b&gt;PIN HEADER&lt;/b&gt;</description>
<wire x1="-5.08" y1="-1.905" x2="-2.54" y2="-1.905" width="0.1524" layer="21"/>
<wire x1="-2.54" y1="-1.905" x2="-2.54" y2="0.635" width="0.1524" layer="21"/>
<wire x1="-2.54" y1="0.635" x2="-5.08" y2="0.635" width="0.1524" layer="21"/>
<wire x1="-5.08" y1="0.635" x2="-5.08" y2="-1.905" width="0.1524" layer="21"/>
<wire x1="-3.81" y1="6.985" x2="-3.81" y2="1.27" width="0.762" layer="21"/>
<wire x1="-2.54" y1="-1.905" x2="0" y2="-1.905" width="0.1524" layer="21"/>
<wire x1="0" y1="-1.905" x2="0" y2="0.635" width="0.1524" layer="21"/>
<wire x1="0" y1="0.635" x2="-2.54" y2="0.635" width="0.1524" layer="21"/>
<wire x1="-1.27" y1="6.985" x2="-1.27" y2="1.27" width="0.762" layer="21"/>
<wire x1="0" y1="-1.905" x2="2.54" y2="-1.905" width="0.1524" layer="21"/>
<wire x1="2.54" y1="-1.905" x2="2.54" y2="0.635" width="0.1524" layer="21"/>
<wire x1="2.54" y1="0.635" x2="0" y2="0.635" width="0.1524" layer="21"/>
<wire x1="1.27" y1="6.985" x2="1.27" y2="1.27" width="0.762" layer="21"/>
<wire x1="2.54" y1="-1.905" x2="5.08" y2="-1.905" width="0.1524" layer="21"/>
<wire x1="5.08" y1="-1.905" x2="5.08" y2="0.635" width="0.1524" layer="21"/>
<wire x1="5.08" y1="0.635" x2="2.54" y2="0.635" width="0.1524" layer="21"/>
<wire x1="3.81" y1="6.985" x2="3.81" y2="1.27" width="0.762" layer="21"/>
<pad name="1" x="-3.81" y="-3.81" drill="1.016" shape="long" rot="R90"/>
<pad name="2" x="-1.27" y="-3.81" drill="1.016" shape="long" rot="R90"/>
<pad name="3" x="1.27" y="-3.81" drill="1.016" shape="long" rot="R90"/>
<pad name="4" x="3.81" y="-3.81" drill="1.016" shape="long" rot="R90"/>
<text x="-5.715" y="-3.81" size="1.27" layer="25" ratio="10" rot="R90">&gt;NAME</text>
<text x="6.985" y="-4.445" size="1.27" layer="27" rot="R90">&gt;VALUE</text>
<rectangle x1="-4.191" y1="0.635" x2="-3.429" y2="1.143" layer="21"/>
<rectangle x1="-1.651" y1="0.635" x2="-0.889" y2="1.143" layer="21"/>
<rectangle x1="0.889" y1="0.635" x2="1.651" y2="1.143" layer="21"/>
<rectangle x1="3.429" y1="0.635" x2="4.191" y2="1.143" layer="21"/>
<rectangle x1="-4.191" y1="-2.921" x2="-3.429" y2="-1.905" layer="21"/>
<rectangle x1="-1.651" y1="-2.921" x2="-0.889" y2="-1.905" layer="21"/>
<rectangle x1="0.889" y1="-2.921" x2="1.651" y2="-1.905" layer="21"/>
<rectangle x1="3.429" y1="-2.921" x2="4.191" y2="-1.905" layer="21"/>
</package>
<package name="1X07">
<description>&lt;b&gt;PIN HEADER&lt;/b&gt;</description>
<wire x1="3.81" y1="0.635" x2="4.445" y2="1.27" width="0.1524" layer="21"/>
<wire x1="4.445" y1="1.27" x2="5.715" y2="1.27" width="0.1524" layer="21"/>
<wire x1="5.715" y1="1.27" x2="6.35" y2="0.635" width="0.1524" layer="21"/>
<wire x1="6.35" y1="0.635" x2="6.35" y2="-0.635" width="0.1524" layer="21"/>
<wire x1="6.35" y1="-0.635" x2="5.715" y2="-1.27" width="0.1524" layer="21"/>
<wire x1="5.715" y1="-1.27" x2="4.445" y2="-1.27" width="0.1524" layer="21"/>
<wire x1="4.445" y1="-1.27" x2="3.81" y2="-0.635" width="0.1524" layer="21"/>
<wire x1="-0.635" y1="1.27" x2="0.635" y2="1.27" width="0.1524" layer="21"/>
<wire x1="0.635" y1="1.27" x2="1.27" y2="0.635" width="0.1524" layer="21"/>
<wire x1="1.27" y1="0.635" x2="1.27" y2="-0.635" width="0.1524" layer="21"/>
<wire x1="1.27" y1="-0.635" x2="0.635" y2="-1.27" width="0.1524" layer="21"/>
<wire x1="1.27" y1="0.635" x2="1.905" y2="1.27" width="0.1524" layer="21"/>
<wire x1="1.905" y1="1.27" x2="3.175" y2="1.27" width="0.1524" layer="21"/>
<wire x1="3.175" y1="1.27" x2="3.81" y2="0.635" width="0.1524" layer="21"/>
<wire x1="3.81" y1="0.635" x2="3.81" y2="-0.635" width="0.1524" layer="21"/>
<wire x1="3.81" y1="-0.635" x2="3.175" y2="-1.27" width="0.1524" layer="21"/>
<wire x1="3.175" y1="-1.27" x2="1.905" y2="-1.27" width="0.1524" layer="21"/>
<wire x1="1.905" y1="-1.27" x2="1.27" y2="-0.635" width="0.1524" layer="21"/>
<wire x1="-3.81" y1="0.635" x2="-3.175" y2="1.27" width="0.1524" layer="21"/>
<wire x1="-3.175" y1="1.27" x2="-1.905" y2="1.27" width="0.1524" layer="21"/>
<wire x1="-1.905" y1="1.27" x2="-1.27" y2="0.635" width="0.1524" layer="21"/>
<wire x1="-1.27" y1="0.635" x2="-1.27" y2="-0.635" width="0.1524" layer="21"/>
<wire x1="-1.27" y1="-0.635" x2="-1.905" y2="-1.27" width="0.1524" layer="21"/>
<wire x1="-1.905" y1="-1.27" x2="-3.175" y2="-1.27" width="0.1524" layer="21"/>
<wire x1="-3.175" y1="-1.27" x2="-3.81" y2="-0.635" width="0.1524" layer="21"/>
<wire x1="-0.635" y1="1.27" x2="-1.27" y2="0.635" width="0.1524" layer="21"/>
<wire x1="-1.27" y1="-0.635" x2="-0.635" y2="-1.27" width="0.1524" layer="21"/>
<wire x1="0.635" y1="-1.27" x2="-0.635" y2="-1.27" width="0.1524" layer="21"/>
<wire x1="-8.255" y1="1.27" x2="-6.985" y2="1.27" width="0.1524" layer="21"/>
<wire x1="-6.985" y1="1.27" x2="-6.35" y2="0.635" width="0.1524" layer="21"/>
<wire x1="-6.35" y1="0.635" x2="-6.35" y2="-0.635" width="0.1524" layer="21"/>
<wire x1="-6.35" y1="-0.635" x2="-6.985" y2="-1.27" width="0.1524" layer="21"/>
<wire x1="-6.35" y1="0.635" x2="-5.715" y2="1.27" width="0.1524" layer="21"/>
<wire x1="-5.715" y1="1.27" x2="-4.445" y2="1.27" width="0.1524" layer="21"/>
<wire x1="-4.445" y1="1.27" x2="-3.81" y2="0.635" width="0.1524" layer="21"/>
<wire x1="-3.81" y1="0.635" x2="-3.81" y2="-0.635" width="0.1524" layer="21"/>
<wire x1="-3.81" y1="-0.635" x2="-4.445" y2="-1.27" width="0.1524" layer="21"/>
<wire x1="-4.445" y1="-1.27" x2="-5.715" y2="-1.27" width="0.1524" layer="21"/>
<wire x1="-5.715" y1="-1.27" x2="-6.35" y2="-0.635" width="0.1524" layer="21"/>
<wire x1="-8.89" y1="0.635" x2="-8.89" y2="-0.635" width="0.1524" layer="21"/>
<wire x1="-8.255" y1="1.27" x2="-8.89" y2="0.635" width="0.1524" layer="21"/>
<wire x1="-8.89" y1="-0.635" x2="-8.255" y2="-1.27" width="0.1524" layer="21"/>
<wire x1="-6.985" y1="-1.27" x2="-8.255" y2="-1.27" width="0.1524" layer="21"/>
<wire x1="6.985" y1="1.27" x2="8.255" y2="1.27" width="0.1524" layer="21"/>
<wire x1="8.255" y1="1.27" x2="8.89" y2="0.635" width="0.1524" layer="21"/>
<wire x1="8.89" y1="0.635" x2="8.89" y2="-0.635" width="0.1524" layer="21"/>
<wire x1="8.89" y1="-0.635" x2="8.255" y2="-1.27" width="0.1524" layer="21"/>
<wire x1="6.985" y1="1.27" x2="6.35" y2="0.635" width="0.1524" layer="21"/>
<wire x1="6.35" y1="-0.635" x2="6.985" y2="-1.27" width="0.1524" layer="21"/>
<wire x1="8.255" y1="-1.27" x2="6.985" y2="-1.27" width="0.1524" layer="21"/>
<pad name="1" x="-7.62" y="0" drill="1.016" shape="long" rot="R90"/>
<pad name="2" x="-5.08" y="0" drill="1.016" shape="long" rot="R90"/>
<pad name="3" x="-2.54" y="0" drill="1.016" shape="long" rot="R90"/>
<pad name="4" x="0" y="0" drill="1.016" shape="long" rot="R90"/>
<pad name="5" x="2.54" y="0" drill="1.016" shape="long" rot="R90"/>
<pad name="6" x="5.08" y="0" drill="1.016" shape="long" rot="R90"/>
<pad name="7" x="7.62" y="0" drill="1.016" shape="long" rot="R90"/>
<text x="-8.9662" y="1.8288" size="1.27" layer="25" ratio="10">&gt;NAME</text>
<text x="-8.89" y="-3.175" size="1.27" layer="27">&gt;VALUE</text>
<rectangle x1="4.826" y1="-0.254" x2="5.334" y2="0.254" layer="51"/>
<rectangle x1="2.286" y1="-0.254" x2="2.794" y2="0.254" layer="51"/>
<rectangle x1="-0.254" y1="-0.254" x2="0.254" y2="0.254" layer="51"/>
<rectangle x1="-2.794" y1="-0.254" x2="-2.286" y2="0.254" layer="51"/>
<rectangle x1="-5.334" y1="-0.254" x2="-4.826" y2="0.254" layer="51"/>
<rectangle x1="-7.874" y1="-0.254" x2="-7.366" y2="0.254" layer="51"/>
<rectangle x1="7.366" y1="-0.254" x2="7.874" y2="0.254" layer="51"/>
</package>
<package name="1X07/90">
<description>&lt;b&gt;PIN HEADER&lt;/b&gt;</description>
<wire x1="-8.89" y1="-1.905" x2="-6.35" y2="-1.905" width="0.1524" layer="21"/>
<wire x1="-6.35" y1="-1.905" x2="-6.35" y2="0.635" width="0.1524" layer="21"/>
<wire x1="-6.35" y1="0.635" x2="-8.89" y2="0.635" width="0.1524" layer="21"/>
<wire x1="-8.89" y1="0.635" x2="-8.89" y2="-1.905" width="0.1524" layer="21"/>
<wire x1="-7.62" y1="6.985" x2="-7.62" y2="1.27" width="0.762" layer="21"/>
<wire x1="-6.35" y1="-1.905" x2="-3.81" y2="-1.905" width="0.1524" layer="21"/>
<wire x1="-3.81" y1="-1.905" x2="-3.81" y2="0.635" width="0.1524" layer="21"/>
<wire x1="-3.81" y1="0.635" x2="-6.35" y2="0.635" width="0.1524" layer="21"/>
<wire x1="-5.08" y1="6.985" x2="-5.08" y2="1.27" width="0.762" layer="21"/>
<wire x1="-3.81" y1="-1.905" x2="-1.27" y2="-1.905" width="0.1524" layer="21"/>
<wire x1="-1.27" y1="-1.905" x2="-1.27" y2="0.635" width="0.1524" layer="21"/>
<wire x1="-1.27" y1="0.635" x2="-3.81" y2="0.635" width="0.1524" layer="21"/>
<wire x1="-2.54" y1="6.985" x2="-2.54" y2="1.27" width="0.762" layer="21"/>
<wire x1="-1.27" y1="-1.905" x2="1.27" y2="-1.905" width="0.1524" layer="21"/>
<wire x1="1.27" y1="-1.905" x2="1.27" y2="0.635" width="0.1524" layer="21"/>
<wire x1="1.27" y1="0.635" x2="-1.27" y2="0.635" width="0.1524" layer="21"/>
<wire x1="0" y1="6.985" x2="0" y2="1.27" width="0.762" layer="21"/>
<wire x1="1.27" y1="-1.905" x2="3.81" y2="-1.905" width="0.1524" layer="21"/>
<wire x1="3.81" y1="-1.905" x2="3.81" y2="0.635" width="0.1524" layer="21"/>
<wire x1="3.81" y1="0.635" x2="1.27" y2="0.635" width="0.1524" layer="21"/>
<wire x1="2.54" y1="6.985" x2="2.54" y2="1.27" width="0.762" layer="21"/>
<wire x1="3.81" y1="-1.905" x2="6.35" y2="-1.905" width="0.1524" layer="21"/>
<wire x1="6.35" y1="-1.905" x2="6.35" y2="0.635" width="0.1524" layer="21"/>
<wire x1="6.35" y1="0.635" x2="3.81" y2="0.635" width="0.1524" layer="21"/>
<wire x1="5.08" y1="6.985" x2="5.08" y2="1.27" width="0.762" layer="21"/>
<wire x1="6.35" y1="-1.905" x2="8.89" y2="-1.905" width="0.1524" layer="21"/>
<wire x1="8.89" y1="-1.905" x2="8.89" y2="0.635" width="0.1524" layer="21"/>
<wire x1="8.89" y1="0.635" x2="6.35" y2="0.635" width="0.1524" layer="21"/>
<wire x1="7.62" y1="6.985" x2="7.62" y2="1.27" width="0.762" layer="21"/>
<pad name="1" x="-7.62" y="-3.81" drill="1.016" shape="long" rot="R90"/>
<pad name="2" x="-5.08" y="-3.81" drill="1.016" shape="long" rot="R90"/>
<pad name="3" x="-2.54" y="-3.81" drill="1.016" shape="long" rot="R90"/>
<pad name="4" x="0" y="-3.81" drill="1.016" shape="long" rot="R90"/>
<pad name="5" x="2.54" y="-3.81" drill="1.016" shape="long" rot="R90"/>
<pad name="6" x="5.08" y="-3.81" drill="1.016" shape="long" rot="R90"/>
<pad name="7" x="7.62" y="-3.81" drill="1.016" shape="long" rot="R90"/>
<text x="-9.525" y="-3.81" size="1.27" layer="25" ratio="10" rot="R90">&gt;NAME</text>
<text x="10.795" y="-3.81" size="1.27" layer="27" rot="R90">&gt;VALUE</text>
<rectangle x1="-8.001" y1="0.635" x2="-7.239" y2="1.143" layer="21"/>
<rectangle x1="-5.461" y1="0.635" x2="-4.699" y2="1.143" layer="21"/>
<rectangle x1="-2.921" y1="0.635" x2="-2.159" y2="1.143" layer="21"/>
<rectangle x1="-0.381" y1="0.635" x2="0.381" y2="1.143" layer="21"/>
<rectangle x1="2.159" y1="0.635" x2="2.921" y2="1.143" layer="21"/>
<rectangle x1="4.699" y1="0.635" x2="5.461" y2="1.143" layer="21"/>
<rectangle x1="7.239" y1="0.635" x2="8.001" y2="1.143" layer="21"/>
<rectangle x1="-8.001" y1="-2.921" x2="-7.239" y2="-1.905" layer="21"/>
<rectangle x1="-5.461" y1="-2.921" x2="-4.699" y2="-1.905" layer="21"/>
<rectangle x1="-2.921" y1="-2.921" x2="-2.159" y2="-1.905" layer="21"/>
<rectangle x1="-0.381" y1="-2.921" x2="0.381" y2="-1.905" layer="21"/>
<rectangle x1="2.159" y1="-2.921" x2="2.921" y2="-1.905" layer="21"/>
<rectangle x1="4.699" y1="-2.921" x2="5.461" y2="-1.905" layer="21"/>
<rectangle x1="7.239" y1="-2.921" x2="8.001" y2="-1.905" layer="21"/>
</package>
<package name="1X06">
<description>&lt;b&gt;PIN HEADER&lt;/b&gt;</description>
<wire x1="0.635" y1="1.27" x2="1.905" y2="1.27" width="0.1524" layer="21"/>
<wire x1="1.905" y1="1.27" x2="2.54" y2="0.635" width="0.1524" layer="21"/>
<wire x1="2.54" y1="0.635" x2="2.54" y2="-0.635" width="0.1524" layer="21"/>
<wire x1="2.54" y1="-0.635" x2="1.905" y2="-1.27" width="0.1524" layer="21"/>
<wire x1="2.54" y1="0.635" x2="3.175" y2="1.27" width="0.1524" layer="21"/>
<wire x1="3.175" y1="1.27" x2="4.445" y2="1.27" width="0.1524" layer="21"/>
<wire x1="4.445" y1="1.27" x2="5.08" y2="0.635" width="0.1524" layer="21"/>
<wire x1="5.08" y1="0.635" x2="5.08" y2="-0.635" width="0.1524" layer="21"/>
<wire x1="5.08" y1="-0.635" x2="4.445" y2="-1.27" width="0.1524" layer="21"/>
<wire x1="4.445" y1="-1.27" x2="3.175" y2="-1.27" width="0.1524" layer="21"/>
<wire x1="3.175" y1="-1.27" x2="2.54" y2="-0.635" width="0.1524" layer="21"/>
<wire x1="-2.54" y1="0.635" x2="-1.905" y2="1.27" width="0.1524" layer="21"/>
<wire x1="-1.905" y1="1.27" x2="-0.635" y2="1.27" width="0.1524" layer="21"/>
<wire x1="-0.635" y1="1.27" x2="0" y2="0.635" width="0.1524" layer="21"/>
<wire x1="0" y1="0.635" x2="0" y2="-0.635" width="0.1524" layer="21"/>
<wire x1="0" y1="-0.635" x2="-0.635" y2="-1.27" width="0.1524" layer="21"/>
<wire x1="-0.635" y1="-1.27" x2="-1.905" y2="-1.27" width="0.1524" layer="21"/>
<wire x1="-1.905" y1="-1.27" x2="-2.54" y2="-0.635" width="0.1524" layer="21"/>
<wire x1="0.635" y1="1.27" x2="0" y2="0.635" width="0.1524" layer="21"/>
<wire x1="0" y1="-0.635" x2="0.635" y2="-1.27" width="0.1524" layer="21"/>
<wire x1="1.905" y1="-1.27" x2="0.635" y2="-1.27" width="0.1524" layer="21"/>
<wire x1="-6.985" y1="1.27" x2="-5.715" y2="1.27" width="0.1524" layer="21"/>
<wire x1="-5.715" y1="1.27" x2="-5.08" y2="0.635" width="0.1524" layer="21"/>
<wire x1="-5.08" y1="0.635" x2="-5.08" y2="-0.635" width="0.1524" layer="21"/>
<wire x1="-5.08" y1="-0.635" x2="-5.715" y2="-1.27" width="0.1524" layer="21"/>
<wire x1="-5.08" y1="0.635" x2="-4.445" y2="1.27" width="0.1524" layer="21"/>
<wire x1="-4.445" y1="1.27" x2="-3.175" y2="1.27" width="0.1524" layer="21"/>
<wire x1="-3.175" y1="1.27" x2="-2.54" y2="0.635" width="0.1524" layer="21"/>
<wire x1="-2.54" y1="0.635" x2="-2.54" y2="-0.635" width="0.1524" layer="21"/>
<wire x1="-2.54" y1="-0.635" x2="-3.175" y2="-1.27" width="0.1524" layer="21"/>
<wire x1="-3.175" y1="-1.27" x2="-4.445" y2="-1.27" width="0.1524" layer="21"/>
<wire x1="-4.445" y1="-1.27" x2="-5.08" y2="-0.635" width="0.1524" layer="21"/>
<wire x1="-7.62" y1="0.635" x2="-7.62" y2="-0.635" width="0.1524" layer="21"/>
<wire x1="-6.985" y1="1.27" x2="-7.62" y2="0.635" width="0.1524" layer="21"/>
<wire x1="-7.62" y1="-0.635" x2="-6.985" y2="-1.27" width="0.1524" layer="21"/>
<wire x1="-5.715" y1="-1.27" x2="-6.985" y2="-1.27" width="0.1524" layer="21"/>
<wire x1="5.715" y1="1.27" x2="6.985" y2="1.27" width="0.1524" layer="21"/>
<wire x1="6.985" y1="1.27" x2="7.62" y2="0.635" width="0.1524" layer="21"/>
<wire x1="7.62" y1="0.635" x2="7.62" y2="-0.635" width="0.1524" layer="21"/>
<wire x1="7.62" y1="-0.635" x2="6.985" y2="-1.27" width="0.1524" layer="21"/>
<wire x1="5.715" y1="1.27" x2="5.08" y2="0.635" width="0.1524" layer="21"/>
<wire x1="5.08" y1="-0.635" x2="5.715" y2="-1.27" width="0.1524" layer="21"/>
<wire x1="6.985" y1="-1.27" x2="5.715" y2="-1.27" width="0.1524" layer="21"/>
<pad name="1" x="-6.35" y="0" drill="1.016" shape="long" rot="R90"/>
<pad name="2" x="-3.81" y="0" drill="1.016" shape="long" rot="R90"/>
<pad name="3" x="-1.27" y="0" drill="1.016" shape="long" rot="R90"/>
<pad name="4" x="1.27" y="0" drill="1.016" shape="long" rot="R90"/>
<pad name="5" x="3.81" y="0" drill="1.016" shape="long" rot="R90"/>
<pad name="6" x="6.35" y="0" drill="1.016" shape="long" rot="R90"/>
<text x="-7.6962" y="1.8288" size="1.27" layer="25" ratio="10">&gt;NAME</text>
<text x="-7.62" y="-3.175" size="1.27" layer="27">&gt;VALUE</text>
<rectangle x1="3.556" y1="-0.254" x2="4.064" y2="0.254" layer="51"/>
<rectangle x1="1.016" y1="-0.254" x2="1.524" y2="0.254" layer="51"/>
<rectangle x1="-1.524" y1="-0.254" x2="-1.016" y2="0.254" layer="51"/>
<rectangle x1="-4.064" y1="-0.254" x2="-3.556" y2="0.254" layer="51"/>
<rectangle x1="-6.604" y1="-0.254" x2="-6.096" y2="0.254" layer="51"/>
<rectangle x1="6.096" y1="-0.254" x2="6.604" y2="0.254" layer="51"/>
</package>
<package name="1X06/90">
<description>&lt;b&gt;PIN HEADER&lt;/b&gt;</description>
<wire x1="-7.62" y1="-1.905" x2="-5.08" y2="-1.905" width="0.1524" layer="21"/>
<wire x1="-5.08" y1="-1.905" x2="-5.08" y2="0.635" width="0.1524" layer="21"/>
<wire x1="-5.08" y1="0.635" x2="-7.62" y2="0.635" width="0.1524" layer="21"/>
<wire x1="-7.62" y1="0.635" x2="-7.62" y2="-1.905" width="0.1524" layer="21"/>
<wire x1="-6.35" y1="6.985" x2="-6.35" y2="1.27" width="0.762" layer="21"/>
<wire x1="-5.08" y1="-1.905" x2="-2.54" y2="-1.905" width="0.1524" layer="21"/>
<wire x1="-2.54" y1="-1.905" x2="-2.54" y2="0.635" width="0.1524" layer="21"/>
<wire x1="-2.54" y1="0.635" x2="-5.08" y2="0.635" width="0.1524" layer="21"/>
<wire x1="-3.81" y1="6.985" x2="-3.81" y2="1.27" width="0.762" layer="21"/>
<wire x1="-2.54" y1="-1.905" x2="0" y2="-1.905" width="0.1524" layer="21"/>
<wire x1="0" y1="-1.905" x2="0" y2="0.635" width="0.1524" layer="21"/>
<wire x1="0" y1="0.635" x2="-2.54" y2="0.635" width="0.1524" layer="21"/>
<wire x1="-1.27" y1="6.985" x2="-1.27" y2="1.27" width="0.762" layer="21"/>
<wire x1="0" y1="-1.905" x2="2.54" y2="-1.905" width="0.1524" layer="21"/>
<wire x1="2.54" y1="-1.905" x2="2.54" y2="0.635" width="0.1524" layer="21"/>
<wire x1="2.54" y1="0.635" x2="0" y2="0.635" width="0.1524" layer="21"/>
<wire x1="1.27" y1="6.985" x2="1.27" y2="1.27" width="0.762" layer="21"/>
<wire x1="2.54" y1="-1.905" x2="5.08" y2="-1.905" width="0.1524" layer="21"/>
<wire x1="5.08" y1="-1.905" x2="5.08" y2="0.635" width="0.1524" layer="21"/>
<wire x1="5.08" y1="0.635" x2="2.54" y2="0.635" width="0.1524" layer="21"/>
<wire x1="3.81" y1="6.985" x2="3.81" y2="1.27" width="0.762" layer="21"/>
<wire x1="5.08" y1="-1.905" x2="7.62" y2="-1.905" width="0.1524" layer="21"/>
<wire x1="7.62" y1="-1.905" x2="7.62" y2="0.635" width="0.1524" layer="21"/>
<wire x1="7.62" y1="0.635" x2="5.08" y2="0.635" width="0.1524" layer="21"/>
<wire x1="6.35" y1="6.985" x2="6.35" y2="1.27" width="0.762" layer="21"/>
<pad name="1" x="-6.35" y="-3.81" drill="1.016" shape="long" rot="R90"/>
<pad name="2" x="-3.81" y="-3.81" drill="1.016" shape="long" rot="R90"/>
<pad name="3" x="-1.27" y="-3.81" drill="1.016" shape="long" rot="R90"/>
<pad name="4" x="1.27" y="-3.81" drill="1.016" shape="long" rot="R90"/>
<pad name="5" x="3.81" y="-3.81" drill="1.016" shape="long" rot="R90"/>
<pad name="6" x="6.35" y="-3.81" drill="1.016" shape="long" rot="R90"/>
<text x="-8.255" y="-3.81" size="1.27" layer="25" ratio="10" rot="R90">&gt;NAME</text>
<text x="9.525" y="-3.81" size="1.27" layer="27" rot="R90">&gt;VALUE</text>
<rectangle x1="-6.731" y1="0.635" x2="-5.969" y2="1.143" layer="21"/>
<rectangle x1="-4.191" y1="0.635" x2="-3.429" y2="1.143" layer="21"/>
<rectangle x1="-1.651" y1="0.635" x2="-0.889" y2="1.143" layer="21"/>
<rectangle x1="0.889" y1="0.635" x2="1.651" y2="1.143" layer="21"/>
<rectangle x1="3.429" y1="0.635" x2="4.191" y2="1.143" layer="21"/>
<rectangle x1="5.969" y1="0.635" x2="6.731" y2="1.143" layer="21"/>
<rectangle x1="-6.731" y1="-2.921" x2="-5.969" y2="-1.905" layer="21"/>
<rectangle x1="-4.191" y1="-2.921" x2="-3.429" y2="-1.905" layer="21"/>
<rectangle x1="-1.651" y1="-2.921" x2="-0.889" y2="-1.905" layer="21"/>
<rectangle x1="0.889" y1="-2.921" x2="1.651" y2="-1.905" layer="21"/>
<rectangle x1="3.429" y1="-2.921" x2="4.191" y2="-1.905" layer="21"/>
<rectangle x1="5.969" y1="-2.921" x2="6.731" y2="-1.905" layer="21"/>
</package>
</packages>
<symbols>
<symbol name="PINHD11">
<wire x1="-6.35" y1="-15.24" x2="1.27" y2="-15.24" width="0.4064" layer="94"/>
<wire x1="1.27" y1="-15.24" x2="1.27" y2="15.24" width="0.4064" layer="94"/>
<wire x1="1.27" y1="15.24" x2="-6.35" y2="15.24" width="0.4064" layer="94"/>
<wire x1="-6.35" y1="15.24" x2="-6.35" y2="-15.24" width="0.4064" layer="94"/>
<text x="-6.35" y="15.875" size="1.778" layer="95">&gt;NAME</text>
<text x="-6.35" y="-17.78" size="1.778" layer="96">&gt;VALUE</text>
<pin name="1" x="-2.54" y="12.7" visible="pad" length="short" direction="pas" function="dot"/>
<pin name="2" x="-2.54" y="10.16" visible="pad" length="short" direction="pas" function="dot"/>
<pin name="3" x="-2.54" y="7.62" visible="pad" length="short" direction="pas" function="dot"/>
<pin name="4" x="-2.54" y="5.08" visible="pad" length="short" direction="pas" function="dot"/>
<pin name="5" x="-2.54" y="2.54" visible="pad" length="short" direction="pas" function="dot"/>
<pin name="6" x="-2.54" y="0" visible="pad" length="short" direction="pas" function="dot"/>
<pin name="7" x="-2.54" y="-2.54" visible="pad" length="short" direction="pas" function="dot"/>
<pin name="8" x="-2.54" y="-5.08" visible="pad" length="short" direction="pas" function="dot"/>
<pin name="9" x="-2.54" y="-7.62" visible="pad" length="short" direction="pas" function="dot"/>
<pin name="10" x="-2.54" y="-10.16" visible="pad" length="short" direction="pas" function="dot"/>
<pin name="11" x="-2.54" y="-12.7" visible="pad" length="short" direction="pas" function="dot"/>
</symbol>
<symbol name="PINHD4">
<wire x1="-6.35" y1="-5.08" x2="1.27" y2="-5.08" width="0.4064" layer="94"/>
<wire x1="1.27" y1="-5.08" x2="1.27" y2="7.62" width="0.4064" layer="94"/>
<wire x1="1.27" y1="7.62" x2="-6.35" y2="7.62" width="0.4064" layer="94"/>
<wire x1="-6.35" y1="7.62" x2="-6.35" y2="-5.08" width="0.4064" layer="94"/>
<text x="-6.35" y="8.255" size="1.778" layer="95">&gt;NAME</text>
<text x="-6.35" y="-7.62" size="1.778" layer="96">&gt;VALUE</text>
<pin name="1" x="-2.54" y="5.08" visible="pad" length="short" direction="pas" function="dot"/>
<pin name="2" x="-2.54" y="2.54" visible="pad" length="short" direction="pas" function="dot"/>
<pin name="3" x="-2.54" y="0" visible="pad" length="short" direction="pas" function="dot"/>
<pin name="4" x="-2.54" y="-2.54" visible="pad" length="short" direction="pas" function="dot"/>
</symbol>
<symbol name="PINHD7">
<wire x1="-6.35" y1="-10.16" x2="1.27" y2="-10.16" width="0.4064" layer="94"/>
<wire x1="1.27" y1="-10.16" x2="1.27" y2="10.16" width="0.4064" layer="94"/>
<wire x1="1.27" y1="10.16" x2="-6.35" y2="10.16" width="0.4064" layer="94"/>
<wire x1="-6.35" y1="10.16" x2="-6.35" y2="-10.16" width="0.4064" layer="94"/>
<text x="-6.35" y="10.795" size="1.778" layer="95">&gt;NAME</text>
<text x="-6.35" y="-12.7" size="1.778" layer="96">&gt;VALUE</text>
<pin name="1" x="-2.54" y="7.62" visible="pad" length="short" direction="pas" function="dot"/>
<pin name="2" x="-2.54" y="5.08" visible="pad" length="short" direction="pas" function="dot"/>
<pin name="3" x="-2.54" y="2.54" visible="pad" length="short" direction="pas" function="dot"/>
<pin name="4" x="-2.54" y="0" visible="pad" length="short" direction="pas" function="dot"/>
<pin name="5" x="-2.54" y="-2.54" visible="pad" length="short" direction="pas" function="dot"/>
<pin name="6" x="-2.54" y="-5.08" visible="pad" length="short" direction="pas" function="dot"/>
<pin name="7" x="-2.54" y="-7.62" visible="pad" length="short" direction="pas" function="dot"/>
</symbol>
<symbol name="PINHD6">
<wire x1="-6.35" y1="-7.62" x2="1.27" y2="-7.62" width="0.4064" layer="94"/>
<wire x1="1.27" y1="-7.62" x2="1.27" y2="10.16" width="0.4064" layer="94"/>
<wire x1="1.27" y1="10.16" x2="-6.35" y2="10.16" width="0.4064" layer="94"/>
<wire x1="-6.35" y1="10.16" x2="-6.35" y2="-7.62" width="0.4064" layer="94"/>
<text x="-6.35" y="10.795" size="1.778" layer="95">&gt;NAME</text>
<text x="-6.35" y="-10.16" size="1.778" layer="96">&gt;VALUE</text>
<pin name="1" x="-2.54" y="7.62" visible="pad" length="short" direction="pas" function="dot"/>
<pin name="2" x="-2.54" y="5.08" visible="pad" length="short" direction="pas" function="dot"/>
<pin name="3" x="-2.54" y="2.54" visible="pad" length="short" direction="pas" function="dot"/>
<pin name="4" x="-2.54" y="0" visible="pad" length="short" direction="pas" function="dot"/>
<pin name="5" x="-2.54" y="-2.54" visible="pad" length="short" direction="pas" function="dot"/>
<pin name="6" x="-2.54" y="-5.08" visible="pad" length="short" direction="pas" function="dot"/>
</symbol>
</symbols>
<devicesets>
<deviceset name="PINHD-1X11" prefix="JP" uservalue="yes">
<description>&lt;b&gt;PIN HEADER&lt;/b&gt;</description>
<gates>
<gate name="A" symbol="PINHD11" x="0" y="0"/>
</gates>
<devices>
<device name="" package="1X11">
<connects>
<connect gate="A" pin="1" pad="1"/>
<connect gate="A" pin="10" pad="10"/>
<connect gate="A" pin="11" pad="11"/>
<connect gate="A" pin="2" pad="2"/>
<connect gate="A" pin="3" pad="3"/>
<connect gate="A" pin="4" pad="4"/>
<connect gate="A" pin="5" pad="5"/>
<connect gate="A" pin="6" pad="6"/>
<connect gate="A" pin="7" pad="7"/>
<connect gate="A" pin="8" pad="8"/>
<connect gate="A" pin="9" pad="9"/>
</connects>
<technologies>
<technology name=""/>
</technologies>
</device>
<device name="/90" package="1X11/90">
<connects>
<connect gate="A" pin="1" pad="1"/>
<connect gate="A" pin="10" pad="10"/>
<connect gate="A" pin="11" pad="11"/>
<connect gate="A" pin="2" pad="2"/>
<connect gate="A" pin="3" pad="3"/>
<connect gate="A" pin="4" pad="4"/>
<connect gate="A" pin="5" pad="5"/>
<connect gate="A" pin="6" pad="6"/>
<connect gate="A" pin="7" pad="7"/>
<connect gate="A" pin="8" pad="8"/>
<connect gate="A" pin="9" pad="9"/>
</connects>
<technologies>
<technology name=""/>
</technologies>
</device>
</devices>
</deviceset>
<deviceset name="PINHD-1X4" prefix="JP" uservalue="yes">
<description>&lt;b&gt;PIN HEADER&lt;/b&gt;</description>
<gates>
<gate name="A" symbol="PINHD4" x="0" y="0"/>
</gates>
<devices>
<device name="" package="1X04">
<connects>
<connect gate="A" pin="1" pad="1"/>
<connect gate="A" pin="2" pad="2"/>
<connect gate="A" pin="3" pad="3"/>
<connect gate="A" pin="4" pad="4"/>
</connects>
<technologies>
<technology name=""/>
</technologies>
</device>
<device name="/90" package="1X04/90">
<connects>
<connect gate="A" pin="1" pad="1"/>
<connect gate="A" pin="2" pad="2"/>
<connect gate="A" pin="3" pad="3"/>
<connect gate="A" pin="4" pad="4"/>
</connects>
<technologies>
<technology name=""/>
</technologies>
</device>
</devices>
</deviceset>
<deviceset name="PINHD-1X7" prefix="JP" uservalue="yes">
<description>&lt;b&gt;PIN HEADER&lt;/b&gt;</description>
<gates>
<gate name="A" symbol="PINHD7" x="0" y="0"/>
</gates>
<devices>
<device name="" package="1X07">
<connects>
<connect gate="A" pin="1" pad="1"/>
<connect gate="A" pin="2" pad="2"/>
<connect gate="A" pin="3" pad="3"/>
<connect gate="A" pin="4" pad="4"/>
<connect gate="A" pin="5" pad="5"/>
<connect gate="A" pin="6" pad="6"/>
<connect gate="A" pin="7" pad="7"/>
</connects>
<technologies>
<technology name=""/>
</technologies>
</device>
<device name="/90" package="1X07/90">
<connects>
<connect gate="A" pin="1" pad="1"/>
<connect gate="A" pin="2" pad="2"/>
<connect gate="A" pin="3" pad="3"/>
<connect gate="A" pin="4" pad="4"/>
<connect gate="A" pin="5" pad="5"/>
<connect gate="A" pin="6" pad="6"/>
<connect gate="A" pin="7" pad="7"/>
</connects>
<technologies>
<technology name=""/>
</technologies>
</device>
</devices>
</deviceset>
<deviceset name="PINHD-1X6" prefix="JP" uservalue="yes">
<description>&lt;b&gt;PIN HEADER&lt;/b&gt;</description>
<gates>
<gate name="A" symbol="PINHD6" x="0" y="-2.54"/>
</gates>
<devices>
<device name="" package="1X06">
<connects>
<connect gate="A" pin="1" pad="1"/>
<connect gate="A" pin="2" pad="2"/>
<connect gate="A" pin="3" pad="3"/>
<connect gate="A" pin="4" pad="4"/>
<connect gate="A" pin="5" pad="5"/>
<connect gate="A" pin="6" pad="6"/>
</connects>
<technologies>
<technology name=""/>
</technologies>
</device>
<device name="/90" package="1X06/90">
<connects>
<connect gate="A" pin="1" pad="1"/>
<connect gate="A" pin="2" pad="2"/>
<connect gate="A" pin="3" pad="3"/>
<connect gate="A" pin="4" pad="4"/>
<connect gate="A" pin="5" pad="5"/>
<connect gate="A" pin="6" pad="6"/>
</connects>
<technologies>
<technology name=""/>
</technologies>
</device>
</devices>
</deviceset>
</devicesets>
</library>
</libraries>
<attributes>
</attributes>
<variantdefs>
</variantdefs>
<classes>
<class number="0" name="default" width="0" drill="0">
</class>
</classes>
<parts>
<part name="LEONIDAS_COMMS" library="Iduino-PC104" deviceset="IDUINO_PC104" device="1" value="IDUINO_PC1041"/>
<part name="IMU" library="Ada-10DOF-IMU" deviceset="10DOF-IMU" device="-10DOF-IMU"/>
<part name="GPS" library="Ada-GPS" deviceset="ADA-GPS" device=""/>
<part name="MOT1" library="MOTCON-TB6612FNG" deviceset="MOTCON-TB6612FNG" device=""/>
<part name="MOT2" library="MOTCON-TB6612FNG" deviceset="MOTCON-TB6612FNG" device=""/>
<part name="ARDUCAM" library="pinhead" deviceset="PINHD-1X11" device="" value="11"/>
<part name="UV" library="pinhead" deviceset="PINHD-1X4" device="" value="4"/>
<part name="SUNSENS" library="pinhead" deviceset="PINHD-1X7" device="" value="7"/>
<part name="MAGS" library="pinhead" deviceset="PINHD-1X6" device="" value="6"/>
</parts>
<sheets>
<sheet>
<plain>
</plain>
<instances>
<instance part="LEONIDAS_COMMS" gate="-J1" x="12.7" y="43.18"/>
<instance part="IMU" gate="G$1" x="101.6" y="55.88"/>
<instance part="GPS" gate="G$1" x="86.36" y="91.44"/>
<instance part="MOT1" gate="G$1" x="91.44" y="10.16"/>
<instance part="MOT2" gate="G$1" x="91.44" y="-20.32"/>
<instance part="ARDUCAM" gate="A" x="68.58" y="55.88"/>
<instance part="UV" gate="A" x="50.8" y="91.44"/>
<instance part="SUNSENS" gate="A" x="50.8" y="35.56"/>
<instance part="MAGS" gate="A" x="30.48" y="-27.94" rot="MR0"/>
</instances>
<busses>
</busses>
<nets>
<net name="3.3V" class="0">
<segment>
<pinref part="LEONIDAS_COMMS" gate="-J1" pin="3.3V"/>
<wire x1="27.94" y1="15.24" x2="33.02" y2="15.24" width="0.1524" layer="91"/>
<label x="33.02" y="15.24" size="1.016" layer="95" xref="yes"/>
</segment>
<segment>
<pinref part="IMU" gate="G$1" pin="VIN"/>
<wire x1="86.36" y1="60.96" x2="83.82" y2="60.96" width="0.1524" layer="91"/>
<label x="83.82" y="60.96" size="1.016" layer="95" rot="R180" xref="yes"/>
</segment>
<segment>
<pinref part="UV" gate="A" pin="1"/>
<wire x1="48.26" y1="96.52" x2="40.64" y2="96.52" width="0.1524" layer="91"/>
<label x="40.64" y="96.52" size="1.016" layer="95" rot="R180" xref="yes"/>
</segment>
</net>
<net name="GND" class="0">
<segment>
<pinref part="LEONIDAS_COMMS" gate="-J1" pin="GND"/>
<wire x1="27.94" y1="17.78" x2="33.02" y2="17.78" width="0.1524" layer="91"/>
<label x="33.02" y="17.78" size="1.016" layer="95" xref="yes"/>
</segment>
<segment>
<pinref part="GPS" gate="G$1" pin="GND"/>
<wire x1="73.66" y1="86.36" x2="71.12" y2="86.36" width="0.1524" layer="91"/>
<label x="71.12" y="86.36" size="1.016" layer="95" rot="R180" xref="yes"/>
</segment>
<segment>
<pinref part="IMU" gate="G$1" pin="GND"/>
<wire x1="86.36" y1="55.88" x2="83.82" y2="55.88" width="0.1524" layer="91"/>
<label x="83.82" y="55.88" size="1.016" layer="95" rot="R180" xref="yes"/>
</segment>
<segment>
<pinref part="UV" gate="A" pin="2"/>
<wire x1="48.26" y1="93.98" x2="40.64" y2="93.98" width="0.1524" layer="91"/>
<label x="40.64" y="93.98" size="1.016" layer="95" rot="R180" xref="yes"/>
</segment>
<segment>
<pinref part="MOT1" gate="G$1" pin="GND-LEFT"/>
<wire x1="76.2" y1="10.16" x2="63.5" y2="10.16" width="0.1524" layer="91"/>
<label x="63.5" y="10.16" size="1.016" layer="95" rot="R180" xref="yes"/>
</segment>
<segment>
<pinref part="MOT2" gate="G$1" pin="GND-LEFT"/>
<wire x1="76.2" y1="-20.32" x2="63.5" y2="-20.32" width="0.1524" layer="91"/>
<label x="63.5" y="-20.32" size="1.016" layer="95" rot="R180" xref="yes"/>
</segment>
<segment>
<pinref part="ARDUCAM" gate="A" pin="10"/>
<wire x1="66.04" y1="45.72" x2="60.96" y2="45.72" width="0.1524" layer="91"/>
<label x="60.96" y="45.72" size="1.016" layer="95" rot="R180" xref="yes"/>
</segment>
<segment>
<pinref part="SUNSENS" gate="A" pin="7"/>
<wire x1="48.26" y1="27.94" x2="43.18" y2="27.94" width="0.1524" layer="91"/>
<label x="43.18" y="27.94" size="1.016" layer="95" rot="R180" xref="yes"/>
</segment>
</net>
<net name="5V" class="0">
<segment>
<pinref part="LEONIDAS_COMMS" gate="-J1" pin="5V"/>
<wire x1="27.94" y1="20.32" x2="33.02" y2="20.32" width="0.1524" layer="91"/>
<label x="33.02" y="20.32" size="1.016" layer="95" xref="yes"/>
</segment>
<segment>
<pinref part="GPS" gate="G$1" pin="VIN"/>
<wire x1="73.66" y1="83.82" x2="71.12" y2="83.82" width="0.1524" layer="91"/>
<label x="71.12" y="83.82" size="1.016" layer="95" rot="R180" xref="yes"/>
</segment>
<segment>
<pinref part="MOT1" gate="G$1" pin="VCC"/>
<wire x1="76.2" y1="12.7" x2="63.5" y2="12.7" width="0.1524" layer="91"/>
<label x="63.5" y="12.7" size="1.016" layer="95" rot="R180" xref="yes"/>
</segment>
<segment>
<pinref part="MOT2" gate="G$1" pin="VCC"/>
<wire x1="76.2" y1="-17.78" x2="63.5" y2="-17.78" width="0.1524" layer="91"/>
<label x="63.5" y="-17.78" size="1.016" layer="95" rot="R180" xref="yes"/>
</segment>
<segment>
<pinref part="ARDUCAM" gate="A" pin="11"/>
<wire x1="66.04" y1="43.18" x2="60.96" y2="43.18" width="0.1524" layer="91"/>
<label x="60.96" y="43.18" size="1.016" layer="95" rot="R180" xref="yes"/>
</segment>
<segment>
<pinref part="SUNSENS" gate="A" pin="6"/>
<wire x1="48.26" y1="30.48" x2="43.18" y2="30.48" width="0.1524" layer="91"/>
<label x="43.18" y="30.48" size="1.016" layer="95" rot="R180" xref="yes"/>
</segment>
<segment>
<pinref part="MOT1" gate="G$1" pin="VM"/>
<wire x1="76.2" y1="15.24" x2="63.5" y2="15.24" width="0.1524" layer="91"/>
<label x="63.5" y="15.24" size="1.016" layer="95" rot="R180" xref="yes"/>
</segment>
<segment>
<pinref part="MOT2" gate="G$1" pin="VM"/>
<wire x1="76.2" y1="-15.24" x2="63.5" y2="-15.24" width="0.1524" layer="91"/>
<label x="63.5" y="-15.24" size="1.016" layer="95" rot="R180" xref="yes"/>
</segment>
</net>
<net name="N$3" class="0">
<segment>
<pinref part="LEONIDAS_COMMS" gate="-J1" pin="TX1"/>
<wire x1="27.94" y1="81.28" x2="30.48" y2="81.28" width="0.1524" layer="91"/>
<wire x1="30.48" y1="81.28" x2="30.48" y2="83.82" width="0.1524" layer="91"/>
<wire x1="30.48" y1="83.82" x2="60.96" y2="83.82" width="0.1524" layer="91"/>
<wire x1="60.96" y1="83.82" x2="60.96" y2="88.9" width="0.1524" layer="91"/>
<pinref part="GPS" gate="G$1" pin="RX"/>
<wire x1="60.96" y1="88.9" x2="73.66" y2="88.9" width="0.1524" layer="91"/>
</segment>
</net>
<net name="N$4" class="0">
<segment>
<wire x1="63.5" y1="91.44" x2="63.5" y2="81.28" width="0.1524" layer="91"/>
<wire x1="63.5" y1="81.28" x2="35.56" y2="81.28" width="0.1524" layer="91"/>
<wire x1="35.56" y1="81.28" x2="35.56" y2="78.74" width="0.1524" layer="91"/>
<pinref part="LEONIDAS_COMMS" gate="-J1" pin="RX1"/>
<wire x1="35.56" y1="78.74" x2="27.94" y2="78.74" width="0.1524" layer="91"/>
<pinref part="GPS" gate="G$1" pin="TX"/>
<wire x1="63.5" y1="91.44" x2="73.66" y2="91.44" width="0.1524" layer="91"/>
</segment>
</net>
<net name="N$1" class="0">
<segment>
<pinref part="IMU" gate="G$1" pin="SCL"/>
<wire x1="86.36" y1="53.34" x2="76.2" y2="53.34" width="0.1524" layer="91"/>
<wire x1="76.2" y1="53.34" x2="76.2" y2="73.66" width="0.1524" layer="91"/>
<pinref part="LEONIDAS_COMMS" gate="-J1" pin="SCL"/>
<wire x1="76.2" y1="73.66" x2="38.1" y2="73.66" width="0.1524" layer="91"/>
<pinref part="UV" gate="A" pin="3"/>
<wire x1="38.1" y1="73.66" x2="27.94" y2="73.66" width="0.1524" layer="91"/>
<wire x1="48.26" y1="91.44" x2="38.1" y2="91.44" width="0.1524" layer="91"/>
<wire x1="38.1" y1="91.44" x2="38.1" y2="73.66" width="0.1524" layer="91"/>
<junction x="38.1" y="73.66"/>
</segment>
</net>
<net name="N$2" class="0">
<segment>
<pinref part="LEONIDAS_COMMS" gate="-J1" pin="SDA"/>
<wire x1="27.94" y1="76.2" x2="40.64" y2="76.2" width="0.1524" layer="91"/>
<wire x1="40.64" y1="76.2" x2="73.66" y2="76.2" width="0.1524" layer="91"/>
<wire x1="73.66" y1="76.2" x2="73.66" y2="50.8" width="0.1524" layer="91"/>
<pinref part="IMU" gate="G$1" pin="SDA"/>
<wire x1="73.66" y1="50.8" x2="86.36" y2="50.8" width="0.1524" layer="91"/>
<pinref part="UV" gate="A" pin="4"/>
<wire x1="48.26" y1="88.9" x2="40.64" y2="88.9" width="0.1524" layer="91"/>
<wire x1="40.64" y1="88.9" x2="40.64" y2="76.2" width="0.1524" layer="91"/>
<junction x="40.64" y="76.2"/>
</segment>
</net>
<net name="N$5" class="0">
<segment>
<pinref part="LEONIDAS_COMMS" gate="-J1" pin="PWM2"/>
<wire x1="27.94" y1="12.7" x2="43.18" y2="12.7" width="0.1524" layer="91"/>
<wire x1="43.18" y1="12.7" x2="43.18" y2="20.32" width="0.1524" layer="91"/>
<wire x1="43.18" y1="20.32" x2="114.3" y2="20.32" width="0.1524" layer="91"/>
<wire x1="114.3" y1="20.32" x2="114.3" y2="15.24" width="0.1524" layer="91"/>
<pinref part="MOT1" gate="G$1" pin="PWMA"/>
<wire x1="114.3" y1="15.24" x2="106.68" y2="15.24" width="0.1524" layer="91"/>
</segment>
</net>
<net name="N$6" class="0">
<segment>
<pinref part="LEONIDAS_COMMS" gate="-J1" pin="PWM3"/>
<wire x1="27.94" y1="10.16" x2="43.18" y2="10.16" width="0.1524" layer="91"/>
<wire x1="43.18" y1="10.16" x2="43.18" y2="-7.62" width="0.1524" layer="91"/>
<wire x1="43.18" y1="-7.62" x2="114.3" y2="-7.62" width="0.1524" layer="91"/>
<wire x1="114.3" y1="-7.62" x2="114.3" y2="0" width="0.1524" layer="91"/>
<pinref part="MOT1" gate="G$1" pin="PWMB"/>
<wire x1="114.3" y1="0" x2="106.68" y2="0" width="0.1524" layer="91"/>
</segment>
</net>
<net name="N$7" class="0">
<segment>
<pinref part="LEONIDAS_COMMS" gate="-J1" pin="PWM4"/>
<wire x1="27.94" y1="7.62" x2="40.64" y2="7.62" width="0.1524" layer="91"/>
<wire x1="40.64" y1="7.62" x2="40.64" y2="-10.16" width="0.1524" layer="91"/>
<wire x1="40.64" y1="-10.16" x2="114.3" y2="-10.16" width="0.1524" layer="91"/>
<wire x1="114.3" y1="-10.16" x2="114.3" y2="-15.24" width="0.1524" layer="91"/>
<pinref part="MOT2" gate="G$1" pin="PWMA"/>
<wire x1="114.3" y1="-15.24" x2="106.68" y2="-15.24" width="0.1524" layer="91"/>
</segment>
</net>
<net name="AIN2M1" class="0">
<segment>
<pinref part="MOT1" gate="G$1" pin="AIN2"/>
<wire x1="106.68" y1="12.7" x2="116.84" y2="12.7" width="0.1524" layer="91"/>
<label x="116.84" y="12.7" size="1.016" layer="95" xref="yes"/>
</segment>
<segment>
<pinref part="LEONIDAS_COMMS" gate="-J1" pin="5"/>
<wire x1="-5.08" y1="35.56" x2="-12.7" y2="35.56" width="0.1524" layer="91"/>
<label x="-12.7" y="35.56" size="1.016" layer="95" rot="R180" xref="yes"/>
</segment>
</net>
<net name="AIN1M1" class="0">
<segment>
<pinref part="MOT1" gate="G$1" pin="AIN1"/>
<wire x1="106.68" y1="10.16" x2="116.84" y2="10.16" width="0.1524" layer="91"/>
<label x="116.84" y="10.16" size="1.016" layer="95" xref="yes"/>
</segment>
<segment>
<pinref part="LEONIDAS_COMMS" gate="-J1" pin="6"/>
<wire x1="-5.08" y1="33.02" x2="-12.7" y2="33.02" width="0.1524" layer="91"/>
<label x="-12.7" y="33.02" size="1.016" layer="95" rot="R180" xref="yes"/>
</segment>
</net>
<net name="BIN1M1" class="0">
<segment>
<pinref part="MOT1" gate="G$1" pin="BIN1"/>
<wire x1="106.68" y1="5.08" x2="116.84" y2="5.08" width="0.1524" layer="91"/>
<label x="116.84" y="5.08" size="1.016" layer="95" xref="yes"/>
</segment>
<segment>
<pinref part="LEONIDAS_COMMS" gate="-J1" pin="7"/>
<wire x1="-5.08" y1="30.48" x2="-12.7" y2="30.48" width="0.1524" layer="91"/>
<label x="-12.7" y="30.48" size="1.016" layer="95" rot="R180" xref="yes"/>
</segment>
</net>
<net name="BIN2M1" class="0">
<segment>
<pinref part="MOT1" gate="G$1" pin="BIN2"/>
<wire x1="106.68" y1="2.54" x2="116.84" y2="2.54" width="0.1524" layer="91"/>
<label x="116.84" y="2.54" size="1.016" layer="95" xref="yes"/>
</segment>
<segment>
<pinref part="LEONIDAS_COMMS" gate="-J1" pin="8"/>
<wire x1="-5.08" y1="27.94" x2="-12.7" y2="27.94" width="0.1524" layer="91"/>
<label x="-12.7" y="27.94" size="1.016" layer="95" rot="R180" xref="yes"/>
</segment>
</net>
<net name="AIN2M2" class="0">
<segment>
<pinref part="MOT2" gate="G$1" pin="AIN2"/>
<wire x1="106.68" y1="-17.78" x2="116.84" y2="-17.78" width="0.1524" layer="91"/>
<label x="116.84" y="-17.78" size="1.016" layer="95" xref="yes"/>
</segment>
<segment>
<pinref part="LEONIDAS_COMMS" gate="-J1" pin="11"/>
<wire x1="-5.08" y1="25.4" x2="-12.7" y2="25.4" width="0.1524" layer="91"/>
<label x="-12.7" y="25.4" size="1.016" layer="95" rot="R180" xref="yes"/>
</segment>
</net>
<net name="AIN1M2" class="0">
<segment>
<pinref part="MOT2" gate="G$1" pin="AIN1"/>
<wire x1="106.68" y1="-20.32" x2="116.84" y2="-20.32" width="0.1524" layer="91"/>
<label x="116.84" y="-20.32" size="1.016" layer="95" xref="yes"/>
</segment>
<segment>
<pinref part="LEONIDAS_COMMS" gate="-J1" pin="12"/>
<wire x1="-5.08" y1="22.86" x2="-12.7" y2="22.86" width="0.1524" layer="91"/>
<label x="-12.7" y="22.86" size="1.016" layer="95" rot="R180" xref="yes"/>
</segment>
</net>
<net name="SDA1" class="0">
<segment>
<pinref part="LEONIDAS_COMMS" gate="-J1" pin="SDA1"/>
<wire x1="-2.54" y1="5.08" x2="-12.7" y2="5.08" width="0.1524" layer="91"/>
<label x="-12.7" y="5.08" size="1.016" layer="95" rot="R180" xref="yes"/>
</segment>
<segment>
<pinref part="ARDUCAM" gate="A" pin="1"/>
<wire x1="66.04" y1="68.58" x2="60.96" y2="68.58" width="0.1524" layer="91"/>
<label x="60.96" y="68.58" size="1.016" layer="95" rot="R180" xref="yes"/>
</segment>
</net>
<net name="SCL1" class="0">
<segment>
<pinref part="LEONIDAS_COMMS" gate="-J1" pin="SCL1"/>
<wire x1="-2.54" y1="2.54" x2="-12.7" y2="2.54" width="0.1524" layer="91"/>
<label x="-12.7" y="2.54" size="1.016" layer="95" rot="R180" xref="yes"/>
</segment>
<segment>
<pinref part="ARDUCAM" gate="A" pin="2"/>
<wire x1="66.04" y1="66.04" x2="60.96" y2="66.04" width="0.1524" layer="91"/>
<label x="60.96" y="66.04" size="1.016" layer="95" rot="R180" xref="yes"/>
</segment>
</net>
<net name="SDCS" class="0">
<segment>
<pinref part="LEONIDAS_COMMS" gate="-J1" pin="SD_CS"/>
<wire x1="27.94" y1="5.08" x2="35.56" y2="5.08" width="0.1524" layer="91"/>
<wire x1="35.56" y1="5.08" x2="35.56" y2="-5.08" width="0.1524" layer="91"/>
<label x="35.56" y="-5.08" size="1.016" layer="95" rot="R270" xref="yes"/>
</segment>
<segment>
<pinref part="ARDUCAM" gate="A" pin="4"/>
<wire x1="66.04" y1="60.96" x2="60.96" y2="60.96" width="0.1524" layer="91"/>
<label x="60.96" y="60.96" size="1.016" layer="95" rot="R180" xref="yes"/>
</segment>
</net>
<net name="CSN" class="0">
<segment>
<pinref part="LEONIDAS_COMMS" gate="-J1" pin="CSN"/>
<wire x1="27.94" y1="2.54" x2="33.02" y2="2.54" width="0.1524" layer="91"/>
<wire x1="33.02" y1="2.54" x2="33.02" y2="-5.08" width="0.1524" layer="91"/>
<label x="33.02" y="-5.08" size="1.016" layer="95" rot="R270" xref="yes"/>
</segment>
<segment>
<pinref part="ARDUCAM" gate="A" pin="3"/>
<wire x1="66.04" y1="63.5" x2="60.96" y2="63.5" width="0.1524" layer="91"/>
<label x="60.96" y="63.5" size="1.016" layer="95" rot="R180" xref="yes"/>
</segment>
</net>
<net name="N$8" class="0">
<segment>
<pinref part="LEONIDAS_COMMS" gate="-J1" pin="MISO"/>
<pinref part="ARDUCAM" gate="A" pin="5"/>
<wire x1="27.94" y1="58.42" x2="66.04" y2="58.42" width="0.1524" layer="91"/>
</segment>
</net>
<net name="N$9" class="0">
<segment>
<pinref part="ARDUCAM" gate="A" pin="6"/>
<wire x1="66.04" y1="55.88" x2="40.64" y2="55.88" width="0.1524" layer="91"/>
<wire x1="40.64" y1="55.88" x2="40.64" y2="60.96" width="0.1524" layer="91"/>
<pinref part="LEONIDAS_COMMS" gate="-J1" pin="MOSI"/>
<wire x1="40.64" y1="60.96" x2="27.94" y2="60.96" width="0.1524" layer="91"/>
</segment>
</net>
<net name="N$10" class="0">
<segment>
<pinref part="LEONIDAS_COMMS" gate="-J1" pin="SCK"/>
<wire x1="27.94" y1="55.88" x2="38.1" y2="55.88" width="0.1524" layer="91"/>
<wire x1="38.1" y1="55.88" x2="38.1" y2="53.34" width="0.1524" layer="91"/>
<pinref part="ARDUCAM" gate="A" pin="7"/>
<wire x1="38.1" y1="53.34" x2="66.04" y2="53.34" width="0.1524" layer="91"/>
</segment>
</net>
<net name="N$12" class="0">
<segment>
<pinref part="LEONIDAS_COMMS" gate="-J1" pin="RSTN"/>
<wire x1="27.94" y1="53.34" x2="35.56" y2="53.34" width="0.1524" layer="91"/>
<wire x1="35.56" y1="53.34" x2="35.56" y2="50.8" width="0.1524" layer="91"/>
<wire x1="35.56" y1="50.8" x2="58.42" y2="50.8" width="0.1524" layer="91"/>
<wire x1="58.42" y1="50.8" x2="58.42" y2="48.26" width="0.1524" layer="91"/>
<pinref part="ARDUCAM" gate="A" pin="9"/>
<wire x1="58.42" y1="48.26" x2="66.04" y2="48.26" width="0.1524" layer="91"/>
</segment>
</net>
<net name="N$11" class="0">
<segment>
<pinref part="LEONIDAS_COMMS" gate="-J1" pin="SS5"/>
<wire x1="27.94" y1="48.26" x2="43.18" y2="48.26" width="0.1524" layer="91"/>
<wire x1="43.18" y1="48.26" x2="43.18" y2="43.18" width="0.1524" layer="91"/>
<pinref part="SUNSENS" gate="A" pin="1"/>
<wire x1="43.18" y1="43.18" x2="48.26" y2="43.18" width="0.1524" layer="91"/>
</segment>
</net>
<net name="N$13" class="0">
<segment>
<pinref part="LEONIDAS_COMMS" gate="-J1" pin="SS4"/>
<wire x1="27.94" y1="45.72" x2="40.64" y2="45.72" width="0.1524" layer="91"/>
<wire x1="40.64" y1="45.72" x2="40.64" y2="40.64" width="0.1524" layer="91"/>
<pinref part="SUNSENS" gate="A" pin="2"/>
<wire x1="40.64" y1="40.64" x2="48.26" y2="40.64" width="0.1524" layer="91"/>
</segment>
</net>
<net name="N$14" class="0">
<segment>
<pinref part="LEONIDAS_COMMS" gate="-J1" pin="SS3"/>
<wire x1="27.94" y1="43.18" x2="38.1" y2="43.18" width="0.1524" layer="91"/>
<wire x1="38.1" y1="43.18" x2="38.1" y2="38.1" width="0.1524" layer="91"/>
<pinref part="SUNSENS" gate="A" pin="3"/>
<wire x1="38.1" y1="38.1" x2="48.26" y2="38.1" width="0.1524" layer="91"/>
</segment>
</net>
<net name="N$15" class="0">
<segment>
<pinref part="LEONIDAS_COMMS" gate="-J1" pin="SS2"/>
<wire x1="27.94" y1="40.64" x2="35.56" y2="40.64" width="0.1524" layer="91"/>
<wire x1="35.56" y1="40.64" x2="35.56" y2="35.56" width="0.1524" layer="91"/>
<pinref part="SUNSENS" gate="A" pin="4"/>
<wire x1="35.56" y1="35.56" x2="48.26" y2="35.56" width="0.1524" layer="91"/>
</segment>
</net>
<net name="N$16" class="0">
<segment>
<pinref part="LEONIDAS_COMMS" gate="-J1" pin="SS1"/>
<wire x1="27.94" y1="38.1" x2="33.02" y2="38.1" width="0.1524" layer="91"/>
<wire x1="33.02" y1="38.1" x2="33.02" y2="33.02" width="0.1524" layer="91"/>
<pinref part="SUNSENS" gate="A" pin="5"/>
<wire x1="33.02" y1="33.02" x2="48.26" y2="33.02" width="0.1524" layer="91"/>
</segment>
</net>
<net name="STBY1" class="0">
<segment>
<pinref part="LEONIDAS_COMMS" gate="-J1" pin="INT_CAM"/>
<wire x1="27.94" y1="63.5" x2="43.18" y2="63.5" width="0.1524" layer="91"/>
<label x="43.18" y="63.5" size="1.016" layer="95" xref="yes"/>
</segment>
<segment>
<pinref part="MOT1" gate="G$1" pin="STBY"/>
<wire x1="106.68" y1="7.62" x2="116.84" y2="7.62" width="0.1524" layer="91"/>
<label x="116.84" y="7.62" size="1.016" layer="95" xref="yes"/>
</segment>
</net>
<net name="STBY2" class="0">
<segment>
<pinref part="LEONIDAS_COMMS" gate="-J1" pin="SAL_SEL"/>
<wire x1="27.94" y1="66.04" x2="43.18" y2="66.04" width="0.1524" layer="91"/>
<label x="43.18" y="66.04" size="1.016" layer="95" xref="yes"/>
</segment>
<segment>
<pinref part="MOT2" gate="G$1" pin="STBY"/>
<wire x1="106.68" y1="-22.86" x2="116.84" y2="-22.86" width="0.1524" layer="91"/>
<label x="116.84" y="-22.86" size="1.016" layer="95" xref="yes"/>
</segment>
</net>
<net name="A01" class="0">
<segment>
<pinref part="MAGS" gate="A" pin="1"/>
<wire x1="33.02" y1="-20.32" x2="48.26" y2="-20.32" width="0.1524" layer="91"/>
<wire x1="48.26" y1="-20.32" x2="48.26" y2="7.62" width="0.1524" layer="91"/>
<pinref part="MOT1" gate="G$1" pin="A01"/>
<wire x1="48.26" y1="7.62" x2="76.2" y2="7.62" width="0.1524" layer="91"/>
</segment>
</net>
<net name="A02" class="0">
<segment>
<pinref part="MAGS" gate="A" pin="2"/>
<wire x1="33.02" y1="-22.86" x2="50.8" y2="-22.86" width="0.1524" layer="91"/>
<wire x1="50.8" y1="-22.86" x2="50.8" y2="5.08" width="0.1524" layer="91"/>
<pinref part="MOT1" gate="G$1" pin="A02"/>
<wire x1="50.8" y1="5.08" x2="76.2" y2="5.08" width="0.1524" layer="91"/>
</segment>
</net>
<net name="B02" class="0">
<segment>
<pinref part="MOT1" gate="G$1" pin="B02"/>
<wire x1="76.2" y1="2.54" x2="53.34" y2="2.54" width="0.1524" layer="91"/>
<wire x1="53.34" y1="2.54" x2="53.34" y2="-25.4" width="0.1524" layer="91"/>
<pinref part="MAGS" gate="A" pin="3"/>
<wire x1="53.34" y1="-25.4" x2="33.02" y2="-25.4" width="0.1524" layer="91"/>
</segment>
</net>
<net name="B01" class="0">
<segment>
<pinref part="MAGS" gate="A" pin="4"/>
<wire x1="33.02" y1="-27.94" x2="55.88" y2="-27.94" width="0.1524" layer="91"/>
<wire x1="55.88" y1="-27.94" x2="55.88" y2="0" width="0.1524" layer="91"/>
<pinref part="MOT1" gate="G$1" pin="B01"/>
<wire x1="55.88" y1="0" x2="76.2" y2="0" width="0.1524" layer="91"/>
</segment>
</net>
<net name="C01" class="0">
<segment>
<pinref part="MOT2" gate="G$1" pin="A01"/>
<wire x1="76.2" y1="-22.86" x2="58.42" y2="-22.86" width="0.1524" layer="91"/>
<wire x1="58.42" y1="-22.86" x2="58.42" y2="-30.48" width="0.1524" layer="91"/>
<pinref part="MAGS" gate="A" pin="5"/>
<wire x1="58.42" y1="-30.48" x2="33.02" y2="-30.48" width="0.1524" layer="91"/>
</segment>
</net>
<net name="C02" class="0">
<segment>
<pinref part="MAGS" gate="A" pin="6"/>
<wire x1="33.02" y1="-33.02" x2="60.96" y2="-33.02" width="0.1524" layer="91"/>
<wire x1="60.96" y1="-33.02" x2="60.96" y2="-25.4" width="0.1524" layer="91"/>
<pinref part="MOT2" gate="G$1" pin="A02"/>
<wire x1="60.96" y1="-25.4" x2="76.2" y2="-25.4" width="0.1524" layer="91"/>
</segment>
</net>
</nets>
</sheet>
</sheets>
</schematic>
</drawing>
</eagle>
